%YAML 1.1
%TAG !u! tag:unity3d.com,2011:
--- !u!29 &1
SceneSettings:
  m_ObjectHideFlags: 0
  m_PVSData: 
  m_PVSObjectsArray: []
  m_PVSPortalsArray: []
  m_OcclusionBakeSettings:
    smallestOccluder: 5
    smallestHole: 0.25
    backfaceThreshold: 100
--- !u!104 &2
RenderSettings:
  m_ObjectHideFlags: 0
  serializedVersion: 6
  m_Fog: 0
  m_FogColor: {r: 0.5, g: 0.5, b: 0.5, a: 1}
  m_FogMode: 3
  m_FogDensity: 0.01
  m_LinearFogStart: 0
  m_LinearFogEnd: 300
  m_AmbientSkyColor: {r: 0.212, g: 0.227, b: 0.259, a: 1}
  m_AmbientEquatorColor: {r: 0.114, g: 0.125, b: 0.133, a: 1}
  m_AmbientGroundColor: {r: 0.047, g: 0.043, b: 0.035, a: 1}
  m_AmbientIntensity: 1
  m_AmbientMode: 0
  m_SkyboxMaterial: {fileID: 10304, guid: 0000000000000000f000000000000000, type: 0}
  m_HaloStrength: 0.5
  m_FlareStrength: 1
  m_FlareFadeSpeed: 3
  m_HaloTexture: {fileID: 0}
  m_SpotCookie: {fileID: 10001, guid: 0000000000000000e000000000000000, type: 0}
  m_DefaultReflectionMode: 0
  m_DefaultReflectionResolution: 128
  m_ReflectionBounces: 1
  m_ReflectionIntensity: 1
  m_CustomReflection: {fileID: 0}
  m_Sun: {fileID: 0}
--- !u!157 &3
LightmapSettings:
  m_ObjectHideFlags: 0
  serializedVersion: 6
  m_GIWorkflowMode: 0
  m_LightmapsMode: 1
  m_GISettings:
    serializedVersion: 2
    m_BounceScale: 1
    m_IndirectOutputScale: 1
    m_AlbedoBoost: 1
    m_TemporalCoherenceThreshold: 1
    m_EnvironmentLightingMode: 0
    m_EnableBakedLightmaps: 1
    m_EnableRealtimeLightmaps: 1
  m_LightmapEditorSettings:
    serializedVersion: 3
    m_Resolution: 2
    m_BakeResolution: 40
    m_TextureWidth: 1024
    m_TextureHeight: 1024
    m_AOMaxDistance: 1
    m_Padding: 2
    m_CompAOExponent: 0
    m_LightmapParameters: {fileID: 0}
    m_TextureCompression: 1
    m_FinalGather: 0
    m_FinalGatherRayCount: 1024
    m_ReflectionCompression: 2
  m_LightingDataAsset: {fileID: 0}
  m_RuntimeCPUUsage: 25
--- !u!196 &4
NavMeshSettings:
  serializedVersion: 2
  m_ObjectHideFlags: 0
  m_BuildSettings:
    serializedVersion: 2
    agentRadius: 0.5
    agentHeight: 2
    agentSlope: 45
    agentClimb: 0.4
    ledgeDropHeight: 0
    maxJumpAcrossDistance: 0
    accuratePlacement: 0
    minRegionArea: 2
    cellSize: 0.16666667
    manualCellSize: 0
  m_NavMeshData: {fileID: 0}
--- !u!1 &3184422
GameObject:
  m_ObjectHideFlags: 0
  m_PrefabParentObject: {fileID: 116076, guid: 1bb80779de0d85b4bba906974dbaa477, type: 2}
  m_PrefabInternal: {fileID: 806555681}
  serializedVersion: 4
  m_Component:
  - 4: {fileID: 3184423}
  m_Layer: 0
  m_Name: trackpad_touch
  m_TagString: Untagged
  m_Icon: {fileID: 0}
  m_NavMeshLayer: 0
  m_StaticEditorFlags: 0
  m_IsActive: 0
--- !u!4 &3184423
Transform:
  m_ObjectHideFlags: 0
  m_PrefabParentObject: {fileID: 458878, guid: 1bb80779de0d85b4bba906974dbaa477, type: 2}
  m_PrefabInternal: {fileID: 806555681}
  m_GameObject: {fileID: 3184422}
  m_LocalRotation: {x: 0, y: 0, z: 0, w: 1}
  m_LocalPosition: {x: 0, y: 0, z: 0}
  m_LocalScale: {x: 1, y: 1, z: 1}
  m_LocalEulerAnglesHint: {x: 0, y: 0, z: 0}
  m_Children:
  - {fileID: 998425247}
  m_Father: {fileID: 969405444}
  m_RootOrder: 11
--- !u!1 &28170215
GameObject:
  m_ObjectHideFlags: 0
  m_PrefabParentObject: {fileID: 180878, guid: 1bb80779de0d85b4bba906974dbaa477, type: 2}
  m_PrefabInternal: {fileID: 806555681}
  serializedVersion: 4
  m_Component:
  - 4: {fileID: 28170216}
  m_Layer: 0
  m_Name: trackhat
  m_TagString: Untagged
  m_Icon: {fileID: 0}
  m_NavMeshLayer: 0
  m_StaticEditorFlags: 0
  m_IsActive: 0
--- !u!4 &28170216
Transform:
  m_ObjectHideFlags: 0
  m_PrefabParentObject: {fileID: 427052, guid: 1bb80779de0d85b4bba906974dbaa477, type: 2}
  m_PrefabInternal: {fileID: 806555681}
  m_GameObject: {fileID: 28170215}
  m_LocalRotation: {x: 0, y: 0, z: 0, w: 1}
  m_LocalPosition: {x: 0, y: 0, z: 0}
  m_LocalScale: {x: 1, y: 1, z: 1}
  m_LocalEulerAnglesHint: {x: 0, y: 0, z: 0}
  m_Children:
  - {fileID: 722115581}
  m_Father: {fileID: 890360580}
  m_RootOrder: 9
--- !u!1 &58134095
GameObject:
  m_ObjectHideFlags: 0
  m_PrefabParentObject: {fileID: 156934, guid: 1bb80779de0d85b4bba906974dbaa477, type: 2}
  m_PrefabInternal: {fileID: 806555681}
  serializedVersion: 4
  m_Component:
  - 4: {fileID: 58134096}
  m_Layer: 0
  m_Name: handgrip
  m_TagString: Untagged
  m_Icon: {fileID: 0}
  m_NavMeshLayer: 0
  m_StaticEditorFlags: 0
  m_IsActive: 0
--- !u!4 &58134096
Transform:
  m_ObjectHideFlags: 0
  m_PrefabParentObject: {fileID: 409672, guid: 1bb80779de0d85b4bba906974dbaa477, type: 2}
  m_PrefabInternal: {fileID: 806555681}
  m_GameObject: {fileID: 58134095}
  m_LocalRotation: {x: 0, y: 0, z: 0, w: 1}
  m_LocalPosition: {x: 0, y: 0, z: 0}
  m_LocalScale: {x: 1, y: 1, z: 1}
  m_LocalEulerAnglesHint: {x: 0, y: 0, z: 0}
  m_Children:
  - {fileID: 1788786872}
  m_Father: {fileID: 890360580}
  m_RootOrder: 4
--- !u!1 &84174426
GameObject:
  m_ObjectHideFlags: 0
  m_PrefabParentObject: {fileID: 0}
  m_PrefabInternal: {fileID: 0}
  serializedVersion: 4
  m_Component:
  - 4: {fileID: 84174429}
  - 218: {fileID: 84174428}
  - 154: {fileID: 84174427}
  m_Layer: 0
  m_Name: Terrain
  m_TagString: Untagged
  m_Icon: {fileID: 0}
  m_NavMeshLayer: 0
  m_StaticEditorFlags: 4294967295
  m_IsActive: 1
--- !u!154 &84174427
TerrainCollider:
  m_ObjectHideFlags: 0
  m_PrefabParentObject: {fileID: 0}
  m_PrefabInternal: {fileID: 0}
  m_GameObject: {fileID: 84174426}
  m_Material: {fileID: 0}
  m_Enabled: 1
  m_TerrainData: {fileID: 15600000, guid: d3186e760cab5b64392765d1aaa6d62b, type: 2}
  m_EnableTreeColliders: 1
--- !u!218 &84174428
Terrain:
  m_ObjectHideFlags: 0
  m_PrefabParentObject: {fileID: 0}
  m_PrefabInternal: {fileID: 0}
  m_GameObject: {fileID: 84174426}
  m_Enabled: 1
  serializedVersion: 3
  m_TerrainData: {fileID: 15600000, guid: d3186e760cab5b64392765d1aaa6d62b, type: 2}
  m_TreeDistance: 2000
  m_TreeBillboardDistance: 50
  m_TreeCrossFadeLength: 5
  m_TreeMaximumFullLODCount: 50
  m_DetailObjectDistance: 80
  m_DetailObjectDensity: 1
  m_HeightmapPixelError: 5
  m_SplatMapDistance: 1000
  m_HeightmapMaximumLOD: 0
  m_CastShadows: 1
  m_DrawHeightmap: 1
  m_DrawTreesAndFoliage: 1
  m_ReflectionProbeUsage: 1
  m_MaterialType: 0
  m_LegacySpecular:
    serializedVersion: 2
    rgba: 4286545791
  m_LegacyShininess: 0.078125
  m_MaterialTemplate: {fileID: 0}
  m_BakeLightProbesForTrees: 1
  m_ScaleInLightmap: 0.0512
  m_LightmapParameters: {fileID: 15203, guid: 0000000000000000f000000000000000, type: 0}
--- !u!4 &84174429
Transform:
  m_ObjectHideFlags: 0
  m_PrefabParentObject: {fileID: 0}
  m_PrefabInternal: {fileID: 0}
  m_GameObject: {fileID: 84174426}
  m_LocalRotation: {x: 0, y: 0, z: 0, w: 1}
  m_LocalPosition: {x: -50, y: 0, z: -50}
  m_LocalScale: {x: 1, y: 1, z: 1}
  m_LocalEulerAnglesHint: {x: 0, y: 0, z: 0}
  m_Children: []
  m_Father: {fileID: 0}
  m_RootOrder: 3
--- !u!1 &158534021
GameObject:
  m_ObjectHideFlags: 0
  m_PrefabParentObject: {fileID: 0}
  m_PrefabInternal: {fileID: 0}
  serializedVersion: 4
  m_Component:
  - 4: {fileID: 158534022}
  - 33: {fileID: 158534025}
  - 65: {fileID: 158534024}
  - 23: {fileID: 158534023}
  m_Layer: 0
  m_Name: Cube (3)
  m_TagString: Untagged
  m_Icon: {fileID: 0}
  m_NavMeshLayer: 0
  m_StaticEditorFlags: 0
  m_IsActive: 1
--- !u!4 &158534022
Transform:
  m_ObjectHideFlags: 0
  m_PrefabParentObject: {fileID: 0}
  m_PrefabInternal: {fileID: 0}
  m_GameObject: {fileID: 158534021}
  m_LocalRotation: {x: 0, y: 0, z: 0, w: 1}
  m_LocalPosition: {x: 11.67, y: 4.24, z: 9.88}
  m_LocalScale: {x: 2, y: 4, z: 2}
  m_LocalEulerAnglesHint: {x: 0, y: 0, z: 0}
  m_Children: []
  m_Father: {fileID: 1344738717}
  m_RootOrder: 4
--- !u!23 &158534023
MeshRenderer:
  m_ObjectHideFlags: 0
  m_PrefabParentObject: {fileID: 0}
  m_PrefabInternal: {fileID: 0}
  m_GameObject: {fileID: 158534021}
  m_Enabled: 1
  m_CastShadows: 1
  m_ReceiveShadows: 1
  m_Materials:
  - {fileID: 2100000, guid: 33af27359b49eda48829e2c0bf1e12b8, type: 2}
  m_SubsetIndices: 
  m_StaticBatchRoot: {fileID: 0}
  m_UseLightProbes: 1
  m_ReflectionProbeUsage: 1
  m_ProbeAnchor: {fileID: 0}
  m_ScaleInLightmap: 1
  m_PreserveUVs: 1
  m_IgnoreNormalsForChartDetection: 0
  m_ImportantGI: 0
  m_MinimumChartSize: 4
  m_AutoUVMaxDistance: 0.5
  m_AutoUVMaxAngle: 89
  m_LightmapParameters: {fileID: 0}
  m_SortingLayerID: 0
  m_SortingOrder: 0
--- !u!65 &158534024
BoxCollider:
  m_ObjectHideFlags: 0
  m_PrefabParentObject: {fileID: 0}
  m_PrefabInternal: {fileID: 0}
  m_GameObject: {fileID: 158534021}
  m_Material: {fileID: 0}
  m_IsTrigger: 0
  m_Enabled: 1
  serializedVersion: 2
  m_Size: {x: 1, y: 1, z: 1}
  m_Center: {x: 0, y: 0, z: 0}
--- !u!33 &158534025
MeshFilter:
  m_ObjectHideFlags: 0
  m_PrefabParentObject: {fileID: 0}
  m_PrefabInternal: {fileID: 0}
  m_GameObject: {fileID: 158534021}
  m_Mesh: {fileID: 10202, guid: 0000000000000000e000000000000000, type: 0}
--- !u!1 &167225758
GameObject:
  m_ObjectHideFlags: 0
  m_PrefabParentObject: {fileID: 144034, guid: 1bb80779de0d85b4bba906974dbaa477, type: 2}
  m_PrefabInternal: {fileID: 806555681}
  serializedVersion: 4
  m_Component:
  - 4: {fileID: 167225759}
  m_Layer: 0
  m_Name: attach
  m_TagString: Untagged
  m_Icon: {fileID: 0}
  m_NavMeshLayer: 0
  m_StaticEditorFlags: 0
  m_IsActive: 1
--- !u!4 &167225759
Transform:
  m_ObjectHideFlags: 0
  m_PrefabParentObject: {fileID: 471324, guid: 1bb80779de0d85b4bba906974dbaa477, type: 2}
  m_PrefabInternal: {fileID: 806555681}
  m_GameObject: {fileID: 167225758}
  m_LocalRotation: {x: 0, y: 0, z: 0, w: 1}
  m_LocalPosition: {x: 0, y: 0, z: -0}
  m_LocalScale: {x: 1, y: 1, z: 1}
  m_LocalEulerAnglesHint: {x: 0, y: 0, z: 0}
  m_Children: []
  m_Father: {fileID: 1404500828}
  m_RootOrder: 0
--- !u!1 &181346782
GameObject:
  m_ObjectHideFlags: 0
  m_PrefabParentObject: {fileID: 182252, guid: 1bb80779de0d85b4bba906974dbaa477, type: 2}
  m_PrefabInternal: {fileID: 806555681}
  serializedVersion: 4
  m_Component:
  - 4: {fileID: 181346783}
  - 20: {fileID: 181346787}
  - 114: {fileID: 181346786}
  - 114: {fileID: 181346785}
  - 92: {fileID: 181346784}
  m_Layer: 0
  m_Name: Camera (head)
  m_TagString: MainCamera
  m_Icon: {fileID: 0}
  m_NavMeshLayer: 0
  m_StaticEditorFlags: 0
  m_IsActive: 1
--- !u!4 &181346783
Transform:
  m_ObjectHideFlags: 0
  m_PrefabParentObject: {fileID: 450656, guid: 1bb80779de0d85b4bba906974dbaa477, type: 2}
  m_PrefabInternal: {fileID: 806555681}
  m_GameObject: {fileID: 181346782}
  m_LocalRotation: {x: 0, y: 0, z: 0, w: 1}
  m_LocalPosition: {x: 0, y: 0, z: 0}
  m_LocalScale: {x: 1, y: 1, z: 1}
  m_LocalEulerAnglesHint: {x: 0, y: 0, z: 0}
  m_Children:
  - {fileID: 1074156695}
  - {fileID: 1930123544}
  m_Father: {fileID: 1676337964}
  m_RootOrder: 2
--- !u!92 &181346784
Behaviour:
  m_ObjectHideFlags: 0
  m_PrefabParentObject: {fileID: 9266568, guid: 1bb80779de0d85b4bba906974dbaa477,
    type: 2}
  m_PrefabInternal: {fileID: 806555681}
  m_GameObject: {fileID: 181346782}
  m_Enabled: 1
--- !u!114 &181346785
MonoBehaviour:
  m_ObjectHideFlags: 0
  m_PrefabParentObject: {fileID: 11499444, guid: 1bb80779de0d85b4bba906974dbaa477,
    type: 2}
  m_PrefabInternal: {fileID: 806555681}
  m_GameObject: {fileID: 181346782}
  m_Enabled: 1
  m_EditorHideFlags: 0
  m_Script: {fileID: 11500000, guid: d37c2cf88f7c59f4c8cf5d3812568143, type: 3}
  m_Name: 
  m_EditorClassIdentifier: 
  index: 0
  origin: {fileID: 0}
  isValid: 0
--- !u!114 &181346786
MonoBehaviour:
  m_ObjectHideFlags: 0
  m_PrefabParentObject: {fileID: 11459104, guid: 1bb80779de0d85b4bba906974dbaa477,
    type: 2}
  m_PrefabInternal: {fileID: 806555681}
  m_GameObject: {fileID: 181346782}
  m_Enabled: 1
  m_EditorHideFlags: 0
  m_Script: {fileID: 11500000, guid: be96d45fe21847a4a805d408a8015c84, type: 3}
  m_Name: 
  m_EditorClassIdentifier: 
  scale: 1.5
  drawOverlay: 1
--- !u!20 &181346787
Camera:
  m_ObjectHideFlags: 0
  m_PrefabParentObject: {fileID: 2058468, guid: 1bb80779de0d85b4bba906974dbaa477,
    type: 2}
  m_PrefabInternal: {fileID: 806555681}
  m_GameObject: {fileID: 181346782}
  m_Enabled: 1
  serializedVersion: 2
  m_ClearFlags: 4
  m_BackGroundColor: {r: 0.19215687, g: 0.3019608, b: 0.4745098, a: 0.019607844}
  m_NormalizedViewPortRect:
    serializedVersion: 2
    x: 0
    y: 0
    width: 1
    height: 1
  near clip plane: 0
  far clip plane: 1
  field of view: 60
  orthographic: 1
  orthographic size: 1
  m_Depth: 0
  m_CullingMask:
    serializedVersion: 2
    m_Bits: 0
  m_RenderingPath: -1
  m_TargetTexture: {fileID: 0}
  m_TargetDisplay: 0
  m_TargetEye: 3
  m_HDR: 0
  m_OcclusionCulling: 0
  m_StereoConvergence: 10
  m_StereoSeparation: 0.022
  m_StereoMirrorMode: 0
--- !u!1 &181818345
GameObject:
  m_ObjectHideFlags: 0
  m_PrefabParentObject: {fileID: 0}
  m_PrefabInternal: {fileID: 0}
  serializedVersion: 4
  m_Component:
  - 4: {fileID: 181818346}
  - 33: {fileID: 181818349}
  - 65: {fileID: 181818348}
  - 23: {fileID: 181818347}
  m_Layer: 0
  m_Name: Cube (2)
  m_TagString: Untagged
  m_Icon: {fileID: 0}
  m_NavMeshLayer: 0
  m_StaticEditorFlags: 0
  m_IsActive: 1
--- !u!4 &181818346
Transform:
  m_ObjectHideFlags: 0
  m_PrefabParentObject: {fileID: 0}
  m_PrefabInternal: {fileID: 0}
  m_GameObject: {fileID: 181818345}
  m_LocalRotation: {x: 0, y: 0, z: 0, w: 1}
  m_LocalPosition: {x: 11.67, y: 3.42, z: 12.84}
  m_LocalScale: {x: 2, y: 3, z: 2}
  m_LocalEulerAnglesHint: {x: 0, y: 0, z: 0}
  m_Children: []
  m_Father: {fileID: 1344738717}
  m_RootOrder: 3
--- !u!23 &181818347
MeshRenderer:
  m_ObjectHideFlags: 0
  m_PrefabParentObject: {fileID: 0}
  m_PrefabInternal: {fileID: 0}
  m_GameObject: {fileID: 181818345}
  m_Enabled: 1
  m_CastShadows: 1
  m_ReceiveShadows: 1
  m_Materials:
  - {fileID: 2100000, guid: 33af27359b49eda48829e2c0bf1e12b8, type: 2}
  m_SubsetIndices: 
  m_StaticBatchRoot: {fileID: 0}
  m_UseLightProbes: 1
  m_ReflectionProbeUsage: 1
  m_ProbeAnchor: {fileID: 0}
  m_ScaleInLightmap: 1
  m_PreserveUVs: 1
  m_IgnoreNormalsForChartDetection: 0
  m_ImportantGI: 0
  m_MinimumChartSize: 4
  m_AutoUVMaxDistance: 0.5
  m_AutoUVMaxAngle: 89
  m_LightmapParameters: {fileID: 0}
  m_SortingLayerID: 0
  m_SortingOrder: 0
--- !u!65 &181818348
BoxCollider:
  m_ObjectHideFlags: 0
  m_PrefabParentObject: {fileID: 0}
  m_PrefabInternal: {fileID: 0}
  m_GameObject: {fileID: 181818345}
  m_Material: {fileID: 0}
  m_IsTrigger: 0
  m_Enabled: 1
  serializedVersion: 2
  m_Size: {x: 1, y: 1, z: 1}
  m_Center: {x: 0, y: 0, z: 0}
--- !u!33 &181818349
MeshFilter:
  m_ObjectHideFlags: 0
  m_PrefabParentObject: {fileID: 0}
  m_PrefabInternal: {fileID: 0}
  m_GameObject: {fileID: 181818345}
  m_Mesh: {fileID: 10202, guid: 0000000000000000e000000000000000, type: 0}
--- !u!1 &188249536
GameObject:
  m_ObjectHideFlags: 0
  m_PrefabParentObject: {fileID: 192726, guid: 1bb80779de0d85b4bba906974dbaa477, type: 2}
  m_PrefabInternal: {fileID: 806555681}
  serializedVersion: 4
  m_Component:
  - 4: {fileID: 188249540}
  - 114: {fileID: 188249539}
  - 114: {fileID: 188249537}
  - 114: {fileID: 188249538}
  m_Layer: 2
  m_Name: Controller (right)
  m_TagString: Untagged
  m_Icon: {fileID: 0}
  m_NavMeshLayer: 0
  m_StaticEditorFlags: 0
  m_IsActive: 1
--- !u!114 &188249537
MonoBehaviour:
  m_ObjectHideFlags: 0
  m_PrefabParentObject: {fileID: 0}
  m_PrefabInternal: {fileID: 0}
  m_GameObject: {fileID: 188249536}
  m_Enabled: 1
  m_EditorHideFlags: 0
  m_Script: {fileID: 11500000, guid: eba3cd5456cd79e49948f5ceb58544b4, type: 3}
  m_Name: 
  m_EditorClassIdentifier: 
  pointerToggleButton: 1
  grabToggleButton: 0
  useToggleButton: 0
  menuToggleButton: 4
  axisFidelity: 1
  triggerPressed: 0
  triggerAxisChanged: 0
  applicationMenuPressed: 0
  touchpadPressed: 0
  touchpadTouched: 0
  touchpadAxisChanged: 0
  gripPressed: 0
  pointerPressed: 0
  grabPressed: 0
  usePressed: 0
  menuPressed: 0
--- !u!114 &188249538
MonoBehaviour:
  m_ObjectHideFlags: 0
  m_PrefabParentObject: {fileID: 0}
  m_PrefabInternal: {fileID: 0}
  m_GameObject: {fileID: 188249536}
  m_Enabled: 1
  m_EditorHideFlags: 0
  m_Script: {fileID: 11500000, guid: 2f0ad608ee982c348aaa6aea32a3db61, type: 3}
  m_Name: 
  m_EditorClassIdentifier: 
  enableTeleport: 1
  pointerHitColor: {r: 0, g: 0.5, b: 0, a: 1}
  pointerMissColor: {r: 0.8, g: 0, b: 0, a: 1}
  showPlayAreaCursor: 0
  playAreaCursorDimensions: {x: 0, y: 0}
  handlePlayAreaCursorCollisions: 0
  beamAlwaysOn: 0
  activateDelay: 0
  pointerLength: 10
  pointerDensity: 10
  showPointerCursor: 1
  pointerCursorRadius: 0.5
  beamCurveOffset: 1
  customPointerTracer: {fileID: 0}
  customPointerCursor: {fileID: 0}
--- !u!114 &188249539
MonoBehaviour:
  m_ObjectHideFlags: 0
  m_PrefabParentObject: {fileID: 11497044, guid: 1bb80779de0d85b4bba906974dbaa477,
    type: 2}
  m_PrefabInternal: {fileID: 806555681}
  m_GameObject: {fileID: 188249536}
  m_Enabled: 1
  m_EditorHideFlags: 0
  m_Script: {fileID: 11500000, guid: d37c2cf88f7c59f4c8cf5d3812568143, type: 3}
  m_Name: 
  m_EditorClassIdentifier: 
  index: -1
  origin: {fileID: 0}
  isValid: 0
--- !u!4 &188249540
Transform:
  m_ObjectHideFlags: 0
  m_PrefabParentObject: {fileID: 420646, guid: 1bb80779de0d85b4bba906974dbaa477, type: 2}
  m_PrefabInternal: {fileID: 806555681}
  m_GameObject: {fileID: 188249536}
  m_LocalRotation: {x: 0, y: 0, z: 0, w: 1}
  m_LocalPosition: {x: 0, y: 0, z: 0}
  m_LocalScale: {x: 1, y: 1, z: 1}
  m_LocalEulerAnglesHint: {x: 0, y: 0, z: 0}
  m_Children:
  - {fileID: 890360580}
  m_Father: {fileID: 1676337964}
  m_RootOrder: 1
--- !u!1 &190340863
GameObject:
  m_ObjectHideFlags: 0
  m_PrefabParentObject: {fileID: 107320, guid: 1bb80779de0d85b4bba906974dbaa477, type: 2}
  m_PrefabInternal: {fileID: 806555681}
  serializedVersion: 4
  m_Component:
  - 4: {fileID: 190340864}
  m_Layer: 0
  m_Name: button
  m_TagString: Untagged
  m_Icon: {fileID: 0}
  m_NavMeshLayer: 0
  m_StaticEditorFlags: 0
  m_IsActive: 0
--- !u!4 &190340864
Transform:
  m_ObjectHideFlags: 0
  m_PrefabParentObject: {fileID: 449930, guid: 1bb80779de0d85b4bba906974dbaa477, type: 2}
  m_PrefabInternal: {fileID: 806555681}
  m_GameObject: {fileID: 190340863}
  m_LocalRotation: {x: 0, y: 0, z: 0, w: 1}
  m_LocalPosition: {x: 0, y: 0, z: 0}
  m_LocalScale: {x: 1, y: 1, z: 1}
  m_LocalEulerAnglesHint: {x: 0, y: 0, z: 0}
  m_Children:
  - {fileID: 506369744}
  m_Father: {fileID: 969405444}
  m_RootOrder: 2
--- !u!1 &196122643
GameObject:
  m_ObjectHideFlags: 0
  m_PrefabParentObject: {fileID: 115990, guid: 1bb80779de0d85b4bba906974dbaa477, type: 2}
  m_PrefabInternal: {fileID: 806555681}
  serializedVersion: 4
  m_Component:
  - 4: {fileID: 196122644}
  m_Layer: 0
  m_Name: attach
  m_TagString: Untagged
  m_Icon: {fileID: 0}
  m_NavMeshLayer: 0
  m_StaticEditorFlags: 0
  m_IsActive: 1
--- !u!4 &196122644
Transform:
  m_ObjectHideFlags: 0
  m_PrefabParentObject: {fileID: 471296, guid: 1bb80779de0d85b4bba906974dbaa477, type: 2}
  m_PrefabInternal: {fileID: 806555681}
  m_GameObject: {fileID: 196122643}
  m_LocalRotation: {x: 0, y: 0, z: 0, w: 1}
  m_LocalPosition: {x: 0, y: 0, z: -0}
  m_LocalScale: {x: 1, y: 1, z: 1}
  m_LocalEulerAnglesHint: {x: 0, y: 0, z: 0}
  m_Children: []
  m_Father: {fileID: 1838419647}
  m_RootOrder: 0
--- !u!1 &207403920
GameObject:
  m_ObjectHideFlags: 0
  m_PrefabParentObject: {fileID: 103820, guid: 1bb80779de0d85b4bba906974dbaa477, type: 2}
  m_PrefabInternal: {fileID: 806555681}
  serializedVersion: 4
  m_Component:
  - 4: {fileID: 207403921}
  m_Layer: 0
  m_Name: rgrip
  m_TagString: Untagged
  m_Icon: {fileID: 0}
  m_NavMeshLayer: 0
  m_StaticEditorFlags: 0
  m_IsActive: 0
--- !u!4 &207403921
Transform:
  m_ObjectHideFlags: 0
  m_PrefabParentObject: {fileID: 469826, guid: 1bb80779de0d85b4bba906974dbaa477, type: 2}
  m_PrefabInternal: {fileID: 806555681}
  m_GameObject: {fileID: 207403920}
  m_LocalRotation: {x: 0, y: 0, z: 0, w: 1}
  m_LocalPosition: {x: 0, y: 0, z: 0}
  m_LocalScale: {x: 1, y: 1, z: 1}
  m_LocalEulerAnglesHint: {x: 0, y: 0, z: 0}
  m_Children:
  - {fileID: 834337565}
  m_Father: {fileID: 890360580}
  m_RootOrder: 6
--- !u!1 &211468323
GameObject:
  m_ObjectHideFlags: 0
  m_PrefabParentObject: {fileID: 169864, guid: 1bb80779de0d85b4bba906974dbaa477, type: 2}
  m_PrefabInternal: {fileID: 806555681}
  serializedVersion: 4
  m_Component:
  - 4: {fileID: 211468324}
  m_Layer: 0
  m_Name: lgrip
  m_TagString: Untagged
  m_Icon: {fileID: 0}
  m_NavMeshLayer: 0
  m_StaticEditorFlags: 0
  m_IsActive: 0
--- !u!4 &211468324
Transform:
  m_ObjectHideFlags: 0
  m_PrefabParentObject: {fileID: 488982, guid: 1bb80779de0d85b4bba906974dbaa477, type: 2}
  m_PrefabInternal: {fileID: 806555681}
  m_GameObject: {fileID: 211468323}
  m_LocalRotation: {x: 0, y: 0, z: 0, w: 1}
  m_LocalPosition: {x: 0, y: 0, z: 0}
  m_LocalScale: {x: 1, y: 1, z: 1}
  m_LocalEulerAnglesHint: {x: 0, y: 0, z: 0}
  m_Children:
  - {fileID: 467811603}
  m_Father: {fileID: 890360580}
  m_RootOrder: 5
--- !u!1 &242567212
GameObject:
  m_ObjectHideFlags: 0
  m_PrefabParentObject: {fileID: 197742, guid: 1bb80779de0d85b4bba906974dbaa477, type: 2}
  m_PrefabInternal: {fileID: 806555681}
  serializedVersion: 4
  m_Component:
  - 4: {fileID: 242567213}
  m_Layer: 0
  m_Name: attach
  m_TagString: Untagged
  m_Icon: {fileID: 0}
  m_NavMeshLayer: 0
  m_StaticEditorFlags: 0
  m_IsActive: 1
--- !u!4 &242567213
Transform:
  m_ObjectHideFlags: 0
  m_PrefabParentObject: {fileID: 496452, guid: 1bb80779de0d85b4bba906974dbaa477, type: 2}
  m_PrefabInternal: {fileID: 806555681}
  m_GameObject: {fileID: 242567212}
  m_LocalRotation: {x: 0, y: 0, z: 0, w: 1}
  m_LocalPosition: {x: 0, y: 0, z: -0}
  m_LocalScale: {x: 1, y: 1, z: 1}
  m_LocalEulerAnglesHint: {x: 0, y: 0, z: 0}
  m_Children: []
  m_Father: {fileID: 1004912862}
  m_RootOrder: 0
--- !u!1 &271627104
GameObject:
  m_ObjectHideFlags: 0
  m_PrefabParentObject: {fileID: 183168, guid: 1bb80779de0d85b4bba906974dbaa477, type: 2}
  m_PrefabInternal: {fileID: 806555681}
  serializedVersion: 4
  m_Component:
  - 4: {fileID: 271627105}
  m_Layer: 0
  m_Name: attach
  m_TagString: Untagged
  m_Icon: {fileID: 0}
  m_NavMeshLayer: 0
  m_StaticEditorFlags: 0
  m_IsActive: 1
--- !u!4 &271627105
Transform:
  m_ObjectHideFlags: 0
  m_PrefabParentObject: {fileID: 439942, guid: 1bb80779de0d85b4bba906974dbaa477, type: 2}
  m_PrefabInternal: {fileID: 806555681}
  m_GameObject: {fileID: 271627104}
  m_LocalRotation: {x: 0, y: 0, z: 0, w: 1}
  m_LocalPosition: {x: 0, y: 0, z: -0}
  m_LocalScale: {x: 1, y: 1, z: 1}
  m_LocalEulerAnglesHint: {x: 0, y: 0, z: 0}
  m_Children: []
  m_Father: {fileID: 478487556}
  m_RootOrder: 0
--- !u!1 &286545245
GameObject:
  m_ObjectHideFlags: 0
  m_PrefabParentObject: {fileID: 199778, guid: 1bb80779de0d85b4bba906974dbaa477, type: 2}
  m_PrefabInternal: {fileID: 806555681}
  serializedVersion: 4
  m_Component:
  - 4: {fileID: 286545246}
  m_Layer: 0
  m_Name: attach
  m_TagString: Untagged
  m_Icon: {fileID: 0}
  m_NavMeshLayer: 0
  m_StaticEditorFlags: 0
  m_IsActive: 1
--- !u!4 &286545246
Transform:
  m_ObjectHideFlags: 0
  m_PrefabParentObject: {fileID: 487848, guid: 1bb80779de0d85b4bba906974dbaa477, type: 2}
  m_PrefabInternal: {fileID: 806555681}
  m_GameObject: {fileID: 286545245}
  m_LocalRotation: {x: 0, y: 0, z: 0, w: 1}
  m_LocalPosition: {x: 0, y: 0, z: -0}
  m_LocalScale: {x: 1, y: 1, z: 1}
  m_LocalEulerAnglesHint: {x: 0, y: 0, z: 0}
  m_Children: []
  m_Father: {fileID: 1492278823}
  m_RootOrder: 0
--- !u!1 &378368791
GameObject:
  m_ObjectHideFlags: 0
  m_PrefabParentObject: {fileID: 125902, guid: 1bb80779de0d85b4bba906974dbaa477, type: 2}
  m_PrefabInternal: {fileID: 806555681}
  serializedVersion: 4
  m_Component:
  - 4: {fileID: 378368792}
  m_Layer: 0
  m_Name: trigger
  m_TagString: Untagged
  m_Icon: {fileID: 0}
  m_NavMeshLayer: 0
  m_StaticEditorFlags: 0
  m_IsActive: 0
--- !u!4 &378368792
Transform:
  m_ObjectHideFlags: 0
  m_PrefabParentObject: {fileID: 481146, guid: 1bb80779de0d85b4bba906974dbaa477, type: 2}
  m_PrefabInternal: {fileID: 806555681}
  m_GameObject: {fileID: 378368791}
  m_LocalRotation: {x: 0, y: 0, z: 0, w: 1}
  m_LocalPosition: {x: 0, y: 0, z: 0}
  m_LocalScale: {x: 1, y: 1, z: 1}
  m_LocalEulerAnglesHint: {x: 0, y: 0, z: 0}
  m_Children:
  - {fileID: 1233003986}
  m_Father: {fileID: 969405444}
  m_RootOrder: 12
--- !u!1001 &393561758
Prefab:
  m_ObjectHideFlags: 0
  serializedVersion: 2
  m_Modification:
    m_TransformParent: {fileID: 1344738717}
    m_Modifications:
    - target: {fileID: 400000, guid: d9d1fbfcf69364ffd8f9c6ade9ce90fe, type: 2}
      propertyPath: m_LocalPosition.x
      value: -0.563
      objectReference: {fileID: 0}
    - target: {fileID: 400000, guid: d9d1fbfcf69364ffd8f9c6ade9ce90fe, type: 2}
      propertyPath: m_LocalPosition.y
      value: 0
      objectReference: {fileID: 0}
    - target: {fileID: 400000, guid: d9d1fbfcf69364ffd8f9c6ade9ce90fe, type: 2}
      propertyPath: m_LocalPosition.z
      value: -6.295
      objectReference: {fileID: 0}
    - target: {fileID: 400000, guid: d9d1fbfcf69364ffd8f9c6ade9ce90fe, type: 2}
      propertyPath: m_LocalRotation.x
      value: 0
      objectReference: {fileID: 0}
    - target: {fileID: 400000, guid: d9d1fbfcf69364ffd8f9c6ade9ce90fe, type: 2}
      propertyPath: m_LocalRotation.y
      value: 1
      objectReference: {fileID: 0}
    - target: {fileID: 400000, guid: d9d1fbfcf69364ffd8f9c6ade9ce90fe, type: 2}
      propertyPath: m_LocalRotation.z
      value: 0
      objectReference: {fileID: 0}
    - target: {fileID: 400000, guid: d9d1fbfcf69364ffd8f9c6ade9ce90fe, type: 2}
      propertyPath: m_LocalRotation.w
      value: -0.00000016292068
      objectReference: {fileID: 0}
    - target: {fileID: 400000, guid: d9d1fbfcf69364ffd8f9c6ade9ce90fe, type: 2}
      propertyPath: m_RootOrder
      value: 0
      objectReference: {fileID: 0}
    - target: {fileID: 100000, guid: d9d1fbfcf69364ffd8f9c6ade9ce90fe, type: 2}
      propertyPath: m_Name
      value: cliff (1)
      objectReference: {fileID: 0}
    - target: {fileID: 400000, guid: d9d1fbfcf69364ffd8f9c6ade9ce90fe, type: 2}
      propertyPath: m_LocalScale.y
      value: 1.1
      objectReference: {fileID: 0}
    - target: {fileID: 400000, guid: d9d1fbfcf69364ffd8f9c6ade9ce90fe, type: 2}
      propertyPath: m_LocalScale.z
      value: 2
      objectReference: {fileID: 0}
    m_RemovedComponents: []
  m_ParentPrefab: {fileID: 100100000, guid: d9d1fbfcf69364ffd8f9c6ade9ce90fe, type: 2}
  m_RootGameObject: {fileID: 1385954887}
  m_IsPrefabParent: 0
--- !u!1 &402108759
GameObject:
  m_ObjectHideFlags: 0
  m_PrefabParentObject: {fileID: 192260, guid: 1bb80779de0d85b4bba906974dbaa477, type: 2}
  m_PrefabInternal: {fileID: 806555681}
  serializedVersion: 4
  m_Component:
  - 4: {fileID: 402108760}
  - 54: {fileID: 402108761}
  m_Layer: 0
  m_Name: attach
  m_TagString: Untagged
  m_Icon: {fileID: 0}
  m_NavMeshLayer: 0
  m_StaticEditorFlags: 0
  m_IsActive: 1
--- !u!4 &402108760
Transform:
  m_ObjectHideFlags: 0
  m_PrefabParentObject: {fileID: 422648, guid: 1bb80779de0d85b4bba906974dbaa477, type: 2}
  m_PrefabInternal: {fileID: 806555681}
  m_GameObject: {fileID: 402108759}
  m_LocalRotation: {x: 0, y: 0, z: 0, w: 1}
  m_LocalPosition: {x: 0, y: 0, z: -0}
  m_LocalScale: {x: 1, y: 1, z: 1}
  m_LocalEulerAnglesHint: {x: 0, y: 0, z: 0}
  m_Children: []
  m_Father: {fileID: 1469801546}
  m_RootOrder: 0
--- !u!54 &402108761
Rigidbody:
  m_ObjectHideFlags: 0
  m_PrefabParentObject: {fileID: 5409936, guid: 1bb80779de0d85b4bba906974dbaa477,
    type: 2}
  m_PrefabInternal: {fileID: 806555681}
  m_GameObject: {fileID: 402108759}
  serializedVersion: 2
  m_Mass: 1
  m_Drag: 0
  m_AngularDrag: 0.05
  m_UseGravity: 1
  m_IsKinematic: 1
  m_Interpolate: 0
  m_Constraints: 0
  m_CollisionDetection: 0
--- !u!1 &457921430
GameObject:
  m_ObjectHideFlags: 0
  m_PrefabParentObject: {fileID: 122444, guid: 1bb80779de0d85b4bba906974dbaa477, type: 2}
  m_PrefabInternal: {fileID: 806555681}
  serializedVersion: 4
  m_Component:
  - 4: {fileID: 457921431}
  m_Layer: 0
  m_Name: lgrip
  m_TagString: Untagged
  m_Icon: {fileID: 0}
  m_NavMeshLayer: 0
  m_StaticEditorFlags: 0
  m_IsActive: 0
--- !u!4 &457921431
Transform:
  m_ObjectHideFlags: 0
  m_PrefabParentObject: {fileID: 460186, guid: 1bb80779de0d85b4bba906974dbaa477, type: 2}
  m_PrefabInternal: {fileID: 806555681}
  m_GameObject: {fileID: 457921430}
  m_LocalRotation: {x: 0, y: 0, z: 0, w: 1}
  m_LocalPosition: {x: 0, y: 0, z: 0}
  m_LocalScale: {x: 1, y: 1, z: 1}
  m_LocalEulerAnglesHint: {x: 0, y: 0, z: 0}
  m_Children:
  - {fileID: 531358914}
  m_Father: {fileID: 969405444}
  m_RootOrder: 5
--- !u!1 &467811602
GameObject:
  m_ObjectHideFlags: 0
  m_PrefabParentObject: {fileID: 131882, guid: 1bb80779de0d85b4bba906974dbaa477, type: 2}
  m_PrefabInternal: {fileID: 806555681}
  serializedVersion: 4
  m_Component:
  - 4: {fileID: 467811603}
  m_Layer: 0
  m_Name: attach
  m_TagString: Untagged
  m_Icon: {fileID: 0}
  m_NavMeshLayer: 0
  m_StaticEditorFlags: 0
  m_IsActive: 1
--- !u!4 &467811603
Transform:
  m_ObjectHideFlags: 0
  m_PrefabParentObject: {fileID: 447610, guid: 1bb80779de0d85b4bba906974dbaa477, type: 2}
  m_PrefabInternal: {fileID: 806555681}
  m_GameObject: {fileID: 467811602}
  m_LocalRotation: {x: 0, y: 0, z: 0, w: 1}
  m_LocalPosition: {x: 0, y: 0, z: -0}
  m_LocalScale: {x: 1, y: 1, z: 1}
  m_LocalEulerAnglesHint: {x: 0, y: 0, z: 0}
  m_Children: []
  m_Father: {fileID: 211468324}
  m_RootOrder: 0
--- !u!1 &478487555
GameObject:
  m_ObjectHideFlags: 0
  m_PrefabParentObject: {fileID: 193538, guid: 1bb80779de0d85b4bba906974dbaa477, type: 2}
  m_PrefabInternal: {fileID: 806555681}
  serializedVersion: 4
  m_Component:
  - 4: {fileID: 478487556}
  m_Layer: 0
  m_Name: rgrip
  m_TagString: Untagged
  m_Icon: {fileID: 0}
  m_NavMeshLayer: 0
  m_StaticEditorFlags: 0
  m_IsActive: 0
--- !u!4 &478487556
Transform:
  m_ObjectHideFlags: 0
  m_PrefabParentObject: {fileID: 401896, guid: 1bb80779de0d85b4bba906974dbaa477, type: 2}
  m_PrefabInternal: {fileID: 806555681}
  m_GameObject: {fileID: 478487555}
  m_LocalRotation: {x: 0, y: 0, z: 0, w: 1}
  m_LocalPosition: {x: 0, y: 0, z: 0}
  m_LocalScale: {x: 1, y: 1, z: 1}
  m_LocalEulerAnglesHint: {x: 0, y: 0, z: 0}
  m_Children:
  - {fileID: 271627105}
  m_Father: {fileID: 969405444}
  m_RootOrder: 6
--- !u!1 &506369743
GameObject:
  m_ObjectHideFlags: 0
  m_PrefabParentObject: {fileID: 158794, guid: 1bb80779de0d85b4bba906974dbaa477, type: 2}
  m_PrefabInternal: {fileID: 806555681}
  serializedVersion: 4
  m_Component:
  - 4: {fileID: 506369744}
  m_Layer: 0
  m_Name: attach
  m_TagString: Untagged
  m_Icon: {fileID: 0}
  m_NavMeshLayer: 0
  m_StaticEditorFlags: 0
  m_IsActive: 1
--- !u!4 &506369744
Transform:
  m_ObjectHideFlags: 0
  m_PrefabParentObject: {fileID: 476032, guid: 1bb80779de0d85b4bba906974dbaa477, type: 2}
  m_PrefabInternal: {fileID: 806555681}
  m_GameObject: {fileID: 506369743}
  m_LocalRotation: {x: 0, y: 0, z: 0, w: 1}
  m_LocalPosition: {x: 0, y: 0, z: -0}
  m_LocalScale: {x: 1, y: 1, z: 1}
  m_LocalEulerAnglesHint: {x: 0, y: 0, z: 0}
  m_Children: []
  m_Father: {fileID: 190340864}
  m_RootOrder: 0
--- !u!1 &531358913
GameObject:
  m_ObjectHideFlags: 0
  m_PrefabParentObject: {fileID: 165302, guid: 1bb80779de0d85b4bba906974dbaa477, type: 2}
  m_PrefabInternal: {fileID: 806555681}
  serializedVersion: 4
  m_Component:
  - 4: {fileID: 531358914}
  m_Layer: 0
  m_Name: attach
  m_TagString: Untagged
  m_Icon: {fileID: 0}
  m_NavMeshLayer: 0
  m_StaticEditorFlags: 0
  m_IsActive: 1
--- !u!4 &531358914
Transform:
  m_ObjectHideFlags: 0
  m_PrefabParentObject: {fileID: 412654, guid: 1bb80779de0d85b4bba906974dbaa477, type: 2}
  m_PrefabInternal: {fileID: 806555681}
  m_GameObject: {fileID: 531358913}
  m_LocalRotation: {x: 0, y: 0, z: 0, w: 1}
  m_LocalPosition: {x: 0, y: 0, z: -0}
  m_LocalScale: {x: 1, y: 1, z: 1}
  m_LocalEulerAnglesHint: {x: 0, y: 0, z: 0}
  m_Children: []
  m_Father: {fileID: 457921431}
  m_RootOrder: 0
--- !u!1 &533658591
GameObject:
  m_ObjectHideFlags: 0
  m_PrefabParentObject: {fileID: 0}
  m_PrefabInternal: {fileID: 0}
  serializedVersion: 4
  m_Component:
  - 4: {fileID: 533658595}
  - 33: {fileID: 533658594}
  - 65: {fileID: 533658593}
  - 23: {fileID: 533658592}
  m_Layer: 0
  m_Name: Cube
  m_TagString: Untagged
  m_Icon: {fileID: 0}
  m_NavMeshLayer: 0
  m_StaticEditorFlags: 0
  m_IsActive: 1
--- !u!23 &533658592
MeshRenderer:
  m_ObjectHideFlags: 0
  m_PrefabParentObject: {fileID: 0}
  m_PrefabInternal: {fileID: 0}
  m_GameObject: {fileID: 533658591}
  m_Enabled: 1
  m_CastShadows: 1
  m_ReceiveShadows: 1
  m_Materials:
  - {fileID: 2100000, guid: 2be9fb9bcea91e7419d90800fabf8e0d, type: 2}
  m_SubsetIndices: 
  m_StaticBatchRoot: {fileID: 0}
  m_UseLightProbes: 1
  m_ReflectionProbeUsage: 1
  m_ProbeAnchor: {fileID: 0}
  m_ScaleInLightmap: 1
  m_PreserveUVs: 1
  m_IgnoreNormalsForChartDetection: 0
  m_ImportantGI: 0
  m_MinimumChartSize: 4
  m_AutoUVMaxDistance: 0.5
  m_AutoUVMaxAngle: 89
  m_LightmapParameters: {fileID: 0}
  m_SortingLayerID: 0
  m_SortingOrder: 0
--- !u!65 &533658593
BoxCollider:
  m_ObjectHideFlags: 0
  m_PrefabParentObject: {fileID: 0}
  m_PrefabInternal: {fileID: 0}
  m_GameObject: {fileID: 533658591}
  m_Material: {fileID: 0}
  m_IsTrigger: 0
  m_Enabled: 1
  serializedVersion: 2
  m_Size: {x: 1, y: 1, z: 1}
  m_Center: {x: 0, y: 0, z: 0}
--- !u!33 &533658594
MeshFilter:
  m_ObjectHideFlags: 0
  m_PrefabParentObject: {fileID: 0}
  m_PrefabInternal: {fileID: 0}
  m_GameObject: {fileID: 533658591}
  m_Mesh: {fileID: 10202, guid: 0000000000000000e000000000000000, type: 0}
--- !u!4 &533658595
Transform:
  m_ObjectHideFlags: 0
  m_PrefabParentObject: {fileID: 0}
  m_PrefabInternal: {fileID: 0}
  m_GameObject: {fileID: 533658591}
  m_LocalRotation: {x: 0, y: 0, z: 0, w: 1}
  m_LocalPosition: {x: 3, y: 1, z: 2}
  m_LocalScale: {x: 2, y: 1, z: 2}
  m_LocalEulerAnglesHint: {x: 0, y: 0, z: 0}
  m_Children: []
  m_Father: {fileID: 1344738717}
  m_RootOrder: 1
--- !u!4 &533865590
Transform:
  m_ObjectHideFlags: 0
  m_PrefabParentObject: {fileID: 400000, guid: d9d1fbfcf69364ffd8f9c6ade9ce90fe, type: 2}
  m_PrefabInternal: {fileID: 393561758}
  m_GameObject: {fileID: 1385954887}
  m_LocalRotation: {x: 0, y: 1, z: 0, w: -0.00000016292068}
  m_LocalPosition: {x: -0.563, y: 0, z: -6.295}
  m_LocalScale: {x: 1, y: 1.1, z: 2}
  m_LocalEulerAnglesHint: {x: 0, y: 0, z: 0}
  m_Children: []
  m_Father: {fileID: 1344738717}
  m_RootOrder: 0
--- !u!1 &540946614
GameObject:
  m_ObjectHideFlags: 0
  m_PrefabParentObject: {fileID: 149372, guid: 1bb80779de0d85b4bba906974dbaa477, type: 2}
  m_PrefabInternal: {fileID: 806555681}
  serializedVersion: 4
  m_Component:
  - 4: {fileID: 540946618}
  - 114: {fileID: 540946617}
  - 114: {fileID: 540946615}
  - 114: {fileID: 540946616}
  m_Layer: 2
  m_Name: Controller (left)
  m_TagString: Untagged
  m_Icon: {fileID: 0}
  m_NavMeshLayer: 0
  m_StaticEditorFlags: 0
  m_IsActive: 1
--- !u!114 &540946615
MonoBehaviour:
  m_ObjectHideFlags: 0
  m_PrefabParentObject: {fileID: 0}
  m_PrefabInternal: {fileID: 0}
  m_GameObject: {fileID: 540946614}
  m_Enabled: 1
  m_EditorHideFlags: 0
  m_Script: {fileID: 11500000, guid: eba3cd5456cd79e49948f5ceb58544b4, type: 3}
  m_Name: 
  m_EditorClassIdentifier: 
  pointerToggleButton: 1
  grabToggleButton: 0
  useToggleButton: 0
  menuToggleButton: 4
  axisFidelity: 1
  triggerPressed: 0
  triggerAxisChanged: 0
  applicationMenuPressed: 0
  touchpadPressed: 0
  touchpadTouched: 0
  touchpadAxisChanged: 0
  gripPressed: 0
  pointerPressed: 0
  grabPressed: 0
  usePressed: 0
  menuPressed: 0
--- !u!114 &540946616
MonoBehaviour:
  m_ObjectHideFlags: 0
  m_PrefabParentObject: {fileID: 0}
  m_PrefabInternal: {fileID: 0}
  m_GameObject: {fileID: 540946614}
  m_Enabled: 1
  m_EditorHideFlags: 0
  m_Script: {fileID: 11500000, guid: 408a45c3d6ea5804fa3bcaaaf8251ab5, type: 3}
  m_Name: 
  m_EditorClassIdentifier: 
  enableTeleport: 1
  pointerHitColor: {r: 0, g: 0.5, b: 0, a: 1}
  pointerMissColor: {r: 0.8, g: 0, b: 0, a: 1}
  showPlayAreaCursor: 0
  playAreaCursorDimensions: {x: 0, y: 0}
  handlePlayAreaCursorCollisions: 0
  beamAlwaysOn: 0
  activateDelay: 0
  pointerThickness: 0.002
  pointerLength: 100
  showPointerTip: 1
--- !u!114 &540946617
MonoBehaviour:
  m_ObjectHideFlags: 0
  m_PrefabParentObject: {fileID: 11409208, guid: 1bb80779de0d85b4bba906974dbaa477,
    type: 2}
  m_PrefabInternal: {fileID: 806555681}
  m_GameObject: {fileID: 540946614}
  m_Enabled: 1
  m_EditorHideFlags: 0
  m_Script: {fileID: 11500000, guid: d37c2cf88f7c59f4c8cf5d3812568143, type: 3}
  m_Name: 
  m_EditorClassIdentifier: 
  index: -1
  origin: {fileID: 0}
  isValid: 0
--- !u!4 &540946618
Transform:
  m_ObjectHideFlags: 0
  m_PrefabParentObject: {fileID: 452402, guid: 1bb80779de0d85b4bba906974dbaa477, type: 2}
  m_PrefabInternal: {fileID: 806555681}
  m_GameObject: {fileID: 540946614}
  m_LocalRotation: {x: 0, y: 0, z: 0, w: 1}
  m_LocalPosition: {x: 0, y: 0, z: 0}
  m_LocalScale: {x: 1, y: 1, z: 1}
  m_LocalEulerAnglesHint: {x: 0, y: 0, z: 0}
  m_Children:
  - {fileID: 969405444}
  m_Father: {fileID: 1676337964}
  m_RootOrder: 0
--- !u!1 &667642627
GameObject:
  m_ObjectHideFlags: 0
  m_PrefabParentObject: {fileID: 134660, guid: 1bb80779de0d85b4bba906974dbaa477, type: 2}
  m_PrefabInternal: {fileID: 806555681}
  serializedVersion: 4
  m_Component:
  - 4: {fileID: 667642628}
  m_Layer: 0
  m_Name: body
  m_TagString: Untagged
  m_Icon: {fileID: 0}
  m_NavMeshLayer: 0
  m_StaticEditorFlags: 0
  m_IsActive: 0
--- !u!4 &667642628
Transform:
  m_ObjectHideFlags: 0
  m_PrefabParentObject: {fileID: 438990, guid: 1bb80779de0d85b4bba906974dbaa477, type: 2}
  m_PrefabInternal: {fileID: 806555681}
  m_GameObject: {fileID: 667642627}
  m_LocalRotation: {x: 0, y: 0, z: 0, w: 1}
  m_LocalPosition: {x: 0, y: 0, z: 0}
  m_LocalScale: {x: 1, y: 1, z: 1}
  m_LocalEulerAnglesHint: {x: 0, y: 0, z: 0}
  m_Children:
  - {fileID: 1128475668}
  m_Father: {fileID: 890360580}
  m_RootOrder: 1
--- !u!1 &704334354
GameObject:
  m_ObjectHideFlags: 0
  m_PrefabParentObject: {fileID: 111094, guid: 1bb80779de0d85b4bba906974dbaa477, type: 2}
  m_PrefabInternal: {fileID: 806555681}
  serializedVersion: 4
  m_Component:
  - 4: {fileID: 704334355}
  m_Layer: 0
  m_Name: trackpad
  m_TagString: Untagged
  m_Icon: {fileID: 0}
  m_NavMeshLayer: 0
  m_StaticEditorFlags: 0
  m_IsActive: 0
--- !u!4 &704334355
Transform:
  m_ObjectHideFlags: 0
  m_PrefabParentObject: {fileID: 405692, guid: 1bb80779de0d85b4bba906974dbaa477, type: 2}
  m_PrefabInternal: {fileID: 806555681}
  m_GameObject: {fileID: 704334354}
  m_LocalRotation: {x: 0, y: 0, z: 0, w: 1}
  m_LocalPosition: {x: 0, y: 0, z: 0}
  m_LocalScale: {x: 1, y: 1, z: 1}
  m_LocalEulerAnglesHint: {x: 0, y: 0, z: 0}
  m_Children:
  - {fileID: 1691830729}
  m_Father: {fileID: 890360580}
  m_RootOrder: 10
--- !u!1 &722115580
GameObject:
  m_ObjectHideFlags: 0
  m_PrefabParentObject: {fileID: 156358, guid: 1bb80779de0d85b4bba906974dbaa477, type: 2}
  m_PrefabInternal: {fileID: 806555681}
  serializedVersion: 4
  m_Component:
  - 4: {fileID: 722115581}
  m_Layer: 0
  m_Name: attach
  m_TagString: Untagged
  m_Icon: {fileID: 0}
  m_NavMeshLayer: 0
  m_StaticEditorFlags: 0
  m_IsActive: 1
--- !u!4 &722115581
Transform:
  m_ObjectHideFlags: 0
  m_PrefabParentObject: {fileID: 465084, guid: 1bb80779de0d85b4bba906974dbaa477, type: 2}
  m_PrefabInternal: {fileID: 806555681}
  m_GameObject: {fileID: 722115580}
  m_LocalRotation: {x: 0, y: 0, z: 0, w: 1}
  m_LocalPosition: {x: 0, y: 0, z: -0}
  m_LocalScale: {x: 1, y: 1, z: 1}
  m_LocalEulerAnglesHint: {x: 0, y: 0, z: 0}
  m_Children: []
  m_Father: {fileID: 28170216}
  m_RootOrder: 0
--- !u!1 &741489974
GameObject:
  m_ObjectHideFlags: 0
  m_PrefabParentObject: {fileID: 160256, guid: 1bb80779de0d85b4bba906974dbaa477, type: 2}
  m_PrefabInternal: {fileID: 806555681}
  serializedVersion: 4
  m_Component:
  - 4: {fileID: 741489975}
  m_Layer: 0
  m_Name: tip
  m_TagString: Untagged
  m_Icon: {fileID: 0}
  m_NavMeshLayer: 0
  m_StaticEditorFlags: 0
  m_IsActive: 0
--- !u!4 &741489975
Transform:
  m_ObjectHideFlags: 0
  m_PrefabParentObject: {fileID: 457306, guid: 1bb80779de0d85b4bba906974dbaa477, type: 2}
  m_PrefabInternal: {fileID: 806555681}
  m_GameObject: {fileID: 741489974}
  m_LocalRotation: {x: 0, y: 0, z: 0, w: 1}
  m_LocalPosition: {x: 0, y: 0, z: 0}
  m_LocalScale: {x: 1, y: 1, z: 1}
  m_LocalEulerAnglesHint: {x: 0, y: 0, z: 0}
  m_Children:
  - {fileID: 1600800532}
  m_Father: {fileID: 890360580}
  m_RootOrder: 8
--- !u!1001 &806555681
Prefab:
  m_ObjectHideFlags: 0
  serializedVersion: 2
  m_Modification:
    m_TransformParent: {fileID: 0}
    m_Modifications:
    - target: {fileID: 446384, guid: 1bb80779de0d85b4bba906974dbaa477, type: 2}
      propertyPath: m_LocalPosition.x
      value: 0
      objectReference: {fileID: 0}
    - target: {fileID: 446384, guid: 1bb80779de0d85b4bba906974dbaa477, type: 2}
      propertyPath: m_LocalPosition.y
      value: 0.5
      objectReference: {fileID: 0}
    - target: {fileID: 446384, guid: 1bb80779de0d85b4bba906974dbaa477, type: 2}
      propertyPath: m_LocalPosition.z
      value: 0
      objectReference: {fileID: 0}
    - target: {fileID: 446384, guid: 1bb80779de0d85b4bba906974dbaa477, type: 2}
      propertyPath: m_LocalRotation.x
      value: 0
      objectReference: {fileID: 0}
    - target: {fileID: 446384, guid: 1bb80779de0d85b4bba906974dbaa477, type: 2}
      propertyPath: m_LocalRotation.y
      value: 0
      objectReference: {fileID: 0}
    - target: {fileID: 446384, guid: 1bb80779de0d85b4bba906974dbaa477, type: 2}
      propertyPath: m_LocalRotation.z
      value: 0
      objectReference: {fileID: 0}
    - target: {fileID: 446384, guid: 1bb80779de0d85b4bba906974dbaa477, type: 2}
      propertyPath: m_LocalRotation.w
      value: 1
      objectReference: {fileID: 0}
    - target: {fileID: 446384, guid: 1bb80779de0d85b4bba906974dbaa477, type: 2}
      propertyPath: m_RootOrder
      value: 3
      objectReference: {fileID: 0}
    - target: {fileID: 3376060, guid: 1bb80779de0d85b4bba906974dbaa477, type: 2}
      propertyPath: m_Mesh
      value: 
      objectReference: {fileID: 1212549166}
    m_RemovedComponents: []
  m_ParentPrefab: {fileID: 100100000, guid: 1bb80779de0d85b4bba906974dbaa477, type: 2}
  m_RootGameObject: {fileID: 1676337958}
  m_IsPrefabParent: 0
--- !u!1 &834337564
GameObject:
  m_ObjectHideFlags: 0
  m_PrefabParentObject: {fileID: 146176, guid: 1bb80779de0d85b4bba906974dbaa477, type: 2}
  m_PrefabInternal: {fileID: 806555681}
  serializedVersion: 4
  m_Component:
  - 4: {fileID: 834337565}
  m_Layer: 0
  m_Name: attach
  m_TagString: Untagged
  m_Icon: {fileID: 0}
  m_NavMeshLayer: 0
  m_StaticEditorFlags: 0
  m_IsActive: 1
--- !u!4 &834337565
Transform:
  m_ObjectHideFlags: 0
  m_PrefabParentObject: {fileID: 416718, guid: 1bb80779de0d85b4bba906974dbaa477, type: 2}
  m_PrefabInternal: {fileID: 806555681}
  m_GameObject: {fileID: 834337564}
  m_LocalRotation: {x: 0, y: 0, z: 0, w: 1}
  m_LocalPosition: {x: 0, y: 0, z: -0}
  m_LocalScale: {x: 1, y: 1, z: 1}
  m_LocalEulerAnglesHint: {x: 0, y: 0, z: 0}
  m_Children: []
  m_Father: {fileID: 207403921}
  m_RootOrder: 0
--- !u!1 &890360579
GameObject:
  m_ObjectHideFlags: 0
  m_PrefabParentObject: {fileID: 108128, guid: 1bb80779de0d85b4bba906974dbaa477, type: 2}
  m_PrefabInternal: {fileID: 806555681}
  serializedVersion: 4
  m_Component:
  - 4: {fileID: 890360580}
  - 114: {fileID: 890360581}
  m_Layer: 0
  m_Name: Model
  m_TagString: Untagged
  m_Icon: {fileID: 0}
  m_NavMeshLayer: 0
  m_StaticEditorFlags: 0
  m_IsActive: 1
--- !u!4 &890360580
Transform:
  m_ObjectHideFlags: 0
  m_PrefabParentObject: {fileID: 433310, guid: 1bb80779de0d85b4bba906974dbaa477, type: 2}
  m_PrefabInternal: {fileID: 806555681}
  m_GameObject: {fileID: 890360579}
  m_LocalRotation: {x: 0, y: 0, z: 0, w: 1}
  m_LocalPosition: {x: 0, y: 0, z: 0}
  m_LocalScale: {x: 1, y: 1, z: 1}
  m_LocalEulerAnglesHint: {x: 0, y: 0, z: 0}
  m_Children:
  - {fileID: 1869109578}
  - {fileID: 667642628}
  - {fileID: 2009907246}
  - {fileID: 1404500828}
  - {fileID: 58134096}
  - {fileID: 211468324}
  - {fileID: 207403921}
  - {fileID: 1021665613}
  - {fileID: 741489975}
  - {fileID: 28170216}
  - {fileID: 704334355}
  - {fileID: 1797797055}
  - {fileID: 1838419647}
  m_Father: {fileID: 188249540}
  m_RootOrder: 0
--- !u!114 &890360581
MonoBehaviour:
  m_ObjectHideFlags: 0
  m_PrefabParentObject: {fileID: 11405672, guid: 1bb80779de0d85b4bba906974dbaa477,
    type: 2}
  m_PrefabInternal: {fileID: 806555681}
  m_GameObject: {fileID: 890360579}
  m_Enabled: 1
  m_EditorHideFlags: 0
  m_Script: {fileID: 11500000, guid: 5890e3cad70bea64d91aef9145ba3454, type: 3}
  m_Name: 
  m_EditorClassIdentifier: 
  index: -1
  modelOverride: 
  shader: {fileID: 46, guid: 0000000000000000f000000000000000, type: 0}
  verbose: 0
  createComponents: 1
  updateDynamically: 1
--- !u!1 &897222094
GameObject:
  m_ObjectHideFlags: 0
  m_PrefabParentObject: {fileID: 142756, guid: 1bb80779de0d85b4bba906974dbaa477, type: 2}
  m_PrefabInternal: {fileID: 806555681}
  serializedVersion: 4
  m_Component:
  - 4: {fileID: 897222095}
  m_Layer: 0
  m_Name: attach
  m_TagString: Untagged
  m_Icon: {fileID: 0}
  m_NavMeshLayer: 0
  m_StaticEditorFlags: 0
  m_IsActive: 1
--- !u!4 &897222095
Transform:
  m_ObjectHideFlags: 0
  m_PrefabParentObject: {fileID: 432614, guid: 1bb80779de0d85b4bba906974dbaa477, type: 2}
  m_PrefabInternal: {fileID: 806555681}
  m_GameObject: {fileID: 897222094}
  m_LocalRotation: {x: 0, y: 0, z: 0, w: 1}
  m_LocalPosition: {x: 0, y: 0, z: -0}
  m_LocalScale: {x: 1, y: 1, z: 1}
  m_LocalEulerAnglesHint: {x: 0, y: 0, z: 0}
  m_Children: []
  m_Father: {fileID: 2078682113}
  m_RootOrder: 0
--- !u!1 &953711196
GameObject:
  m_ObjectHideFlags: 0
  m_PrefabParentObject: {fileID: 181876, guid: 1bb80779de0d85b4bba906974dbaa477, type: 2}
  m_PrefabInternal: {fileID: 806555681}
  serializedVersion: 4
  m_Component:
  - 4: {fileID: 953711197}
  m_Layer: 0
  m_Name: attach
  m_TagString: Untagged
  m_Icon: {fileID: 0}
  m_NavMeshLayer: 0
  m_StaticEditorFlags: 0
  m_IsActive: 1
--- !u!4 &953711197
Transform:
  m_ObjectHideFlags: 0
  m_PrefabParentObject: {fileID: 407878, guid: 1bb80779de0d85b4bba906974dbaa477, type: 2}
  m_PrefabInternal: {fileID: 806555681}
  m_GameObject: {fileID: 953711196}
  m_LocalRotation: {x: 0, y: 0, z: 0, w: 1}
  m_LocalPosition: {x: 0, y: 0, z: -0}
  m_LocalScale: {x: 1, y: 1, z: 1}
  m_LocalEulerAnglesHint: {x: 0, y: 0, z: 0}
  m_Children: []
  m_Father: {fileID: 1169204124}
  m_RootOrder: 0
--- !u!1 &969405443
GameObject:
  m_ObjectHideFlags: 0
  m_PrefabParentObject: {fileID: 133470, guid: 1bb80779de0d85b4bba906974dbaa477, type: 2}
  m_PrefabInternal: {fileID: 806555681}
  serializedVersion: 4
  m_Component:
  - 4: {fileID: 969405444}
  - 114: {fileID: 969405445}
  m_Layer: 0
  m_Name: Model
  m_TagString: Untagged
  m_Icon: {fileID: 0}
  m_NavMeshLayer: 0
  m_StaticEditorFlags: 0
  m_IsActive: 1
--- !u!4 &969405444
Transform:
  m_ObjectHideFlags: 0
  m_PrefabParentObject: {fileID: 482528, guid: 1bb80779de0d85b4bba906974dbaa477, type: 2}
  m_PrefabInternal: {fileID: 806555681}
  m_GameObject: {fileID: 969405443}
  m_LocalRotation: {x: 0, y: 0, z: 0, w: 1}
  m_LocalPosition: {x: 0, y: 0, z: 0}
  m_LocalScale: {x: 1, y: 1, z: 1}
  m_LocalEulerAnglesHint: {x: 0, y: 0, z: 0}
  m_Children:
  - {fileID: 1492278823}
  - {fileID: 2078682113}
  - {fileID: 190340864}
  - {fileID: 977177997}
  - {fileID: 1004912862}
  - {fileID: 457921431}
  - {fileID: 478487556}
  - {fileID: 988270691}
  - {fileID: 1469801546}
  - {fileID: 1812347922}
  - {fileID: 1169204124}
  - {fileID: 3184423}
  - {fileID: 378368792}
  m_Father: {fileID: 540946618}
  m_RootOrder: 0
--- !u!114 &969405445
MonoBehaviour:
  m_ObjectHideFlags: 0
  m_PrefabParentObject: {fileID: 11440038, guid: 1bb80779de0d85b4bba906974dbaa477,
    type: 2}
  m_PrefabInternal: {fileID: 806555681}
  m_GameObject: {fileID: 969405443}
  m_Enabled: 1
  m_EditorHideFlags: 0
  m_Script: {fileID: 11500000, guid: 5890e3cad70bea64d91aef9145ba3454, type: 3}
  m_Name: 
  m_EditorClassIdentifier: 
  index: -1
  modelOverride: 
  shader: {fileID: 46, guid: 0000000000000000f000000000000000, type: 0}
  verbose: 0
  createComponents: 1
  updateDynamically: 1
--- !u!1 &977177996
GameObject:
  m_ObjectHideFlags: 0
  m_PrefabParentObject: {fileID: 136272, guid: 1bb80779de0d85b4bba906974dbaa477, type: 2}
  m_PrefabInternal: {fileID: 806555681}
  serializedVersion: 4
  m_Component:
  - 4: {fileID: 977177997}
  m_Layer: 0
  m_Name: gdc2015
  m_TagString: Untagged
  m_Icon: {fileID: 0}
  m_NavMeshLayer: 0
  m_StaticEditorFlags: 0
  m_IsActive: 0
--- !u!4 &977177997
Transform:
  m_ObjectHideFlags: 0
  m_PrefabParentObject: {fileID: 431852, guid: 1bb80779de0d85b4bba906974dbaa477, type: 2}
  m_PrefabInternal: {fileID: 806555681}
  m_GameObject: {fileID: 977177996}
  m_LocalRotation: {x: 0, y: 0, z: 0, w: 1}
  m_LocalPosition: {x: 0, y: 0, z: 0}
  m_LocalScale: {x: 1, y: 1, z: 1}
  m_LocalEulerAnglesHint: {x: 0, y: 0, z: 0}
  m_Children:
  - {fileID: 2074654349}
  m_Father: {fileID: 969405444}
  m_RootOrder: 3
--- !u!1 &988270690
GameObject:
  m_ObjectHideFlags: 0
  m_PrefabParentObject: {fileID: 137102, guid: 1bb80779de0d85b4bba906974dbaa477, type: 2}
  m_PrefabInternal: {fileID: 806555681}
  serializedVersion: 4
  m_Component:
  - 4: {fileID: 988270691}
  m_Layer: 0
  m_Name: sys_button
  m_TagString: Untagged
  m_Icon: {fileID: 0}
  m_NavMeshLayer: 0
  m_StaticEditorFlags: 0
  m_IsActive: 0
--- !u!4 &988270691
Transform:
  m_ObjectHideFlags: 0
  m_PrefabParentObject: {fileID: 476428, guid: 1bb80779de0d85b4bba906974dbaa477, type: 2}
  m_PrefabInternal: {fileID: 806555681}
  m_GameObject: {fileID: 988270690}
  m_LocalRotation: {x: 0, y: 0, z: 0, w: 1}
  m_LocalPosition: {x: 0, y: 0, z: 0}
  m_LocalScale: {x: 1, y: 1, z: 1}
  m_LocalEulerAnglesHint: {x: 0, y: 0, z: 0}
  m_Children:
  - {fileID: 1742507581}
  m_Father: {fileID: 969405444}
  m_RootOrder: 7
--- !u!1 &998425246
GameObject:
  m_ObjectHideFlags: 0
  m_PrefabParentObject: {fileID: 132376, guid: 1bb80779de0d85b4bba906974dbaa477, type: 2}
  m_PrefabInternal: {fileID: 806555681}
  serializedVersion: 4
  m_Component:
  - 4: {fileID: 998425247}
  m_Layer: 0
  m_Name: attach
  m_TagString: Untagged
  m_Icon: {fileID: 0}
  m_NavMeshLayer: 0
  m_StaticEditorFlags: 0
  m_IsActive: 1
--- !u!4 &998425247
Transform:
  m_ObjectHideFlags: 0
  m_PrefabParentObject: {fileID: 462856, guid: 1bb80779de0d85b4bba906974dbaa477, type: 2}
  m_PrefabInternal: {fileID: 806555681}
  m_GameObject: {fileID: 998425246}
  m_LocalRotation: {x: 0, y: 0, z: 0, w: 1}
  m_LocalPosition: {x: 0, y: 0, z: -0}
  m_LocalScale: {x: 1, y: 1, z: 1}
  m_LocalEulerAnglesHint: {x: 0, y: 0, z: 0}
  m_Children: []
  m_Father: {fileID: 3184423}
  m_RootOrder: 0
--- !u!1 &1004912861
GameObject:
  m_ObjectHideFlags: 0
  m_PrefabParentObject: {fileID: 167068, guid: 1bb80779de0d85b4bba906974dbaa477, type: 2}
  m_PrefabInternal: {fileID: 806555681}
  serializedVersion: 4
  m_Component:
  - 4: {fileID: 1004912862}
  m_Layer: 0
  m_Name: handgrip
  m_TagString: Untagged
  m_Icon: {fileID: 0}
  m_NavMeshLayer: 0
  m_StaticEditorFlags: 0
  m_IsActive: 0
--- !u!4 &1004912862
Transform:
  m_ObjectHideFlags: 0
  m_PrefabParentObject: {fileID: 444934, guid: 1bb80779de0d85b4bba906974dbaa477, type: 2}
  m_PrefabInternal: {fileID: 806555681}
  m_GameObject: {fileID: 1004912861}
  m_LocalRotation: {x: 0, y: 0, z: 0, w: 1}
  m_LocalPosition: {x: 0, y: 0, z: 0}
  m_LocalScale: {x: 1, y: 1, z: 1}
  m_LocalEulerAnglesHint: {x: 0, y: 0, z: 0}
  m_Children:
  - {fileID: 242567213}
  m_Father: {fileID: 969405444}
  m_RootOrder: 4
--- !u!1 &1021665612
GameObject:
  m_ObjectHideFlags: 0
  m_PrefabParentObject: {fileID: 147354, guid: 1bb80779de0d85b4bba906974dbaa477, type: 2}
  m_PrefabInternal: {fileID: 806555681}
  serializedVersion: 4
  m_Component:
  - 4: {fileID: 1021665613}
  m_Layer: 0
  m_Name: sys_button
  m_TagString: Untagged
  m_Icon: {fileID: 0}
  m_NavMeshLayer: 0
  m_StaticEditorFlags: 0
  m_IsActive: 0
--- !u!4 &1021665613
Transform:
  m_ObjectHideFlags: 0
  m_PrefabParentObject: {fileID: 492448, guid: 1bb80779de0d85b4bba906974dbaa477, type: 2}
  m_PrefabInternal: {fileID: 806555681}
  m_GameObject: {fileID: 1021665612}
  m_LocalRotation: {x: 0, y: 0, z: 0, w: 1}
  m_LocalPosition: {x: 0, y: 0, z: 0}
  m_LocalScale: {x: 1, y: 1, z: 1}
  m_LocalEulerAnglesHint: {x: 0, y: 0, z: 0}
  m_Children:
  - {fileID: 1402504760}
  m_Father: {fileID: 890360580}
  m_RootOrder: 7
--- !u!1 &1074156694
GameObject:
  m_ObjectHideFlags: 0
  m_PrefabParentObject: {fileID: 135094, guid: 1bb80779de0d85b4bba906974dbaa477, type: 2}
  m_PrefabInternal: {fileID: 806555681}
  serializedVersion: 4
  m_Component:
  - 4: {fileID: 1074156695}
  - 20: {fileID: 1074156700}
  - 124: {fileID: 1074156699}
  - 114: {fileID: 1074156698}
  - 114: {fileID: 1074156697}
  - 114: {fileID: 1074156696}
  m_Layer: 0
  m_Name: Camera (eye)
  m_TagString: MainCamera
  m_Icon: {fileID: 0}
  m_NavMeshLayer: 0
  m_StaticEditorFlags: 0
  m_IsActive: 1
--- !u!4 &1074156695
Transform:
  m_ObjectHideFlags: 0
  m_PrefabParentObject: {fileID: 423326, guid: 1bb80779de0d85b4bba906974dbaa477, type: 2}
  m_PrefabInternal: {fileID: 806555681}
  m_GameObject: {fileID: 1074156694}
  m_LocalRotation: {x: 0, y: 0, z: 0, w: 1}
  m_LocalPosition: {x: 0, y: 0, z: 0}
  m_LocalScale: {x: 1, y: 1, z: 1}
  m_LocalEulerAnglesHint: {x: 0, y: 0, z: 0}
  m_Children: []
  m_Father: {fileID: 181346783}
  m_RootOrder: 0
--- !u!114 &1074156696
MonoBehaviour:
  m_ObjectHideFlags: 0
  m_PrefabParentObject: {fileID: 11493690, guid: 1bb80779de0d85b4bba906974dbaa477,
    type: 2}
  m_PrefabInternal: {fileID: 806555681}
  m_GameObject: {fileID: 1074156694}
  m_Enabled: 1
  m_EditorHideFlags: 0
  m_Script: {fileID: 11500000, guid: 6bca9ccf900ccc84c887d783321d27e2, type: 3}
  m_Name: 
  m_EditorClassIdentifier: 
  _head: {fileID: 181346783}
  _ears: {fileID: 1930123544}
  wireframe: 0
  flip: {fileID: 1074156698}
--- !u!114 &1074156697
MonoBehaviour:
  m_ObjectHideFlags: 0
  m_PrefabParentObject: {fileID: 11484416, guid: 1bb80779de0d85b4bba906974dbaa477,
    type: 2}
  m_PrefabInternal: {fileID: 806555681}
  m_GameObject: {fileID: 1074156694}
  m_Enabled: 1
  m_EditorHideFlags: 0
  m_Script: {fileID: 11500000, guid: 2ad1e469d4e3e04489f9a36419f1a4f8, type: 3}
  m_Name: 
  m_EditorClassIdentifier: 
--- !u!114 &1074156698
MonoBehaviour:
  m_ObjectHideFlags: 0
  m_PrefabParentObject: {fileID: 11437556, guid: 1bb80779de0d85b4bba906974dbaa477,
    type: 2}
  m_PrefabInternal: {fileID: 806555681}
  m_GameObject: {fileID: 1074156694}
  m_Enabled: 1
  m_EditorHideFlags: 0
  m_Script: {fileID: 11500000, guid: f5be45115742b07478e21c85fcc233ec, type: 3}
  m_Name: 
  m_EditorClassIdentifier: 
--- !u!124 &1074156699
Behaviour:
  m_ObjectHideFlags: 0
  m_PrefabParentObject: {fileID: 12423890, guid: 1bb80779de0d85b4bba906974dbaa477,
    type: 2}
  m_PrefabInternal: {fileID: 806555681}
  m_GameObject: {fileID: 1074156694}
  m_Enabled: 1
--- !u!20 &1074156700
Camera:
  m_ObjectHideFlags: 0
  m_PrefabParentObject: {fileID: 2092920, guid: 1bb80779de0d85b4bba906974dbaa477,
    type: 2}
  m_PrefabInternal: {fileID: 806555681}
  m_GameObject: {fileID: 1074156694}
  m_Enabled: 1
  serializedVersion: 2
  m_ClearFlags: 1
  m_BackGroundColor: {r: 0.19215687, g: 0.3019608, b: 0.4745098, a: 0.019607844}
  m_NormalizedViewPortRect:
    serializedVersion: 2
    x: 0
    y: 0
    width: 1
    height: 1
  near clip plane: 0.02
  far clip plane: 100
  field of view: 60
  orthographic: 0
  orthographic size: 5
  m_Depth: -1
  m_CullingMask:
    serializedVersion: 2
    m_Bits: 4294967295
  m_RenderingPath: -1
  m_TargetTexture: {fileID: 0}
  m_TargetDisplay: 0
  m_TargetEye: 3
  m_HDR: 0
  m_OcclusionCulling: 1
  m_StereoConvergence: 10
  m_StereoSeparation: 0.022
  m_StereoMirrorMode: 0
--- !u!1 &1128475667
GameObject:
  m_ObjectHideFlags: 0
  m_PrefabParentObject: {fileID: 158626, guid: 1bb80779de0d85b4bba906974dbaa477, type: 2}
  m_PrefabInternal: {fileID: 806555681}
  serializedVersion: 4
  m_Component:
  - 4: {fileID: 1128475668}
  m_Layer: 0
  m_Name: attach
  m_TagString: Untagged
  m_Icon: {fileID: 0}
  m_NavMeshLayer: 0
  m_StaticEditorFlags: 0
  m_IsActive: 1
--- !u!4 &1128475668
Transform:
  m_ObjectHideFlags: 0
  m_PrefabParentObject: {fileID: 491498, guid: 1bb80779de0d85b4bba906974dbaa477, type: 2}
  m_PrefabInternal: {fileID: 806555681}
  m_GameObject: {fileID: 1128475667}
  m_LocalRotation: {x: 0, y: 0, z: 0, w: 1}
  m_LocalPosition: {x: 0, y: 0, z: -0}
  m_LocalScale: {x: 1, y: 1, z: 1}
  m_LocalEulerAnglesHint: {x: 0, y: 0, z: 0}
  m_Children: []
  m_Father: {fileID: 667642628}
  m_RootOrder: 0
--- !u!1 &1169204123
GameObject:
  m_ObjectHideFlags: 0
  m_PrefabParentObject: {fileID: 180412, guid: 1bb80779de0d85b4bba906974dbaa477, type: 2}
  m_PrefabInternal: {fileID: 806555681}
  serializedVersion: 4
  m_Component:
  - 4: {fileID: 1169204124}
  m_Layer: 0
  m_Name: trackpad
  m_TagString: Untagged
  m_Icon: {fileID: 0}
  m_NavMeshLayer: 0
  m_StaticEditorFlags: 0
  m_IsActive: 0
--- !u!4 &1169204124
Transform:
  m_ObjectHideFlags: 0
  m_PrefabParentObject: {fileID: 413070, guid: 1bb80779de0d85b4bba906974dbaa477, type: 2}
  m_PrefabInternal: {fileID: 806555681}
  m_GameObject: {fileID: 1169204123}
  m_LocalRotation: {x: 0, y: 0, z: 0, w: 1}
  m_LocalPosition: {x: 0, y: 0, z: 0}
  m_LocalScale: {x: 1, y: 1, z: 1}
  m_LocalEulerAnglesHint: {x: 0, y: 0, z: 0}
  m_Children:
  - {fileID: 953711197}
  m_Father: {fileID: 969405444}
  m_RootOrder: 10
--- !u!1001 &1210637101
Prefab:
  m_ObjectHideFlags: 0
  serializedVersion: 2
  m_Modification:
    m_TransformParent: {fileID: 1344738717}
    m_Modifications:
    - target: {fileID: 400000, guid: d9d1fbfcf69364ffd8f9c6ade9ce90fe, type: 2}
      propertyPath: m_LocalPosition.x
      value: -0.562804
      objectReference: {fileID: 0}
    - target: {fileID: 400000, guid: d9d1fbfcf69364ffd8f9c6ade9ce90fe, type: 2}
      propertyPath: m_LocalPosition.y
      value: 0.476
      objectReference: {fileID: 0}
    - target: {fileID: 400000, guid: d9d1fbfcf69364ffd8f9c6ade9ce90fe, type: 2}
      propertyPath: m_LocalPosition.z
      value: -5.013
      objectReference: {fileID: 0}
    - target: {fileID: 400000, guid: d9d1fbfcf69364ffd8f9c6ade9ce90fe, type: 2}
      propertyPath: m_LocalRotation.x
      value: 0
      objectReference: {fileID: 0}
    - target: {fileID: 400000, guid: d9d1fbfcf69364ffd8f9c6ade9ce90fe, type: 2}
      propertyPath: m_LocalRotation.y
      value: 0
      objectReference: {fileID: 0}
    - target: {fileID: 400000, guid: d9d1fbfcf69364ffd8f9c6ade9ce90fe, type: 2}
      propertyPath: m_LocalRotation.z
      value: 0
      objectReference: {fileID: 0}
    - target: {fileID: 400000, guid: d9d1fbfcf69364ffd8f9c6ade9ce90fe, type: 2}
      propertyPath: m_LocalRotation.w
      value: 1
      objectReference: {fileID: 0}
    - target: {fileID: 400000, guid: d9d1fbfcf69364ffd8f9c6ade9ce90fe, type: 2}
      propertyPath: m_RootOrder
      value: 5
      objectReference: {fileID: 0}
    m_RemovedComponents: []
  m_ParentPrefab: {fileID: 100100000, guid: d9d1fbfcf69364ffd8f9c6ade9ce90fe, type: 2}
  m_RootGameObject: {fileID: 2125377469}
  m_IsPrefabParent: 0
--- !u!43 &1212549166
Mesh:
  m_ObjectHideFlags: 0
  m_PrefabParentObject: {fileID: 0}
  m_PrefabInternal: {fileID: 0}
  m_Name: 
  serializedVersion: 8
  m_SubMeshes:
  - serializedVersion: 2
    firstByte: 0
    indexCount: 24
    topology: 0
    firstVertex: 0
    vertexCount: 8
    localAABB:
      m_Center: {x: 0, y: 0.01, z: 0}
      m_Extent: {x: 1.2500001, y: 0, z: 0.95000017}
  m_Shapes:
    vertices: []
    shapes: []
    channels: []
    fullWeights: []
  m_BindPose: []
  m_BoneNameHashes: 
  m_RootBoneNameHash: 0
  m_MeshCompression: 0
  m_IsReadable: 1
  m_KeepVertices: 1
  m_KeepIndices: 1
  m_IndexBuffer: 000001000400010005000400010002000500020006000500020003000600030007000600030000000700000004000700
  m_Skin: []
  m_VertexData:
    m_CurrentChannels: 13
    m_VertexCount: 8
    m_Channels:
    - stream: 0
      offset: 0
      format: 0
      dimension: 3
    - stream: 0
      offset: 0
      format: 0
      dimension: 0
    - stream: 0
      offset: 12
      format: 0
      dimension: 4
    - stream: 0
      offset: 28
      format: 0
      dimension: 2
    - stream: 0
      offset: 0
      format: 0
      dimension: 0
    - stream: 0
      offset: 0
      format: 0
      dimension: 0
    - stream: 0
      offset: 0
      format: 0
      dimension: 0
    - stream: 0
      offset: 0
      format: 0
      dimension: 0
    m_DataSize: 288
    _typelessdata: cecc8c3f0ad7233ccfcc4cbf000000000000803f0000803f0000803f0000000000000000cecc8cbf0ad7233ccfcc4cbf000000000000803f0000803f0000803f0000803f00000000cecc8cbf0ad7233ccfcc4c3f000000000000803f0000803f0000803f0000000000000000cecc8c3f0ad7233ccfcc4c3f000000000000803f0000803f0000803f0000803f000000000100a03f0ad7233c363373bf000000000000803f0000803f00000000000000000000803f0100a0bf0ad7233c363373bf000000000000803f0000803f000000000000803f0000803f0100a0bf0ad7233c3633733f000000000000803f0000803f00000000000000000000803f0100a03f0ad7233c3633733f000000000000803f0000803f000000000000803f0000803f
  m_CompressedMesh:
    m_Vertices:
      m_NumItems: 0
      m_Range: 0
      m_Start: 0
      m_Data: 
      m_BitSize: 0
    m_UV:
      m_NumItems: 0
      m_Range: 0
      m_Start: 0
      m_Data: 
      m_BitSize: 0
    m_Normals:
      m_NumItems: 0
      m_Range: 0
      m_Start: 0
      m_Data: 
      m_BitSize: 0
    m_Tangents:
      m_NumItems: 0
      m_Range: 0
      m_Start: 0
      m_Data: 
      m_BitSize: 0
    m_Weights:
      m_NumItems: 0
      m_Data: 
      m_BitSize: 0
    m_NormalSigns:
      m_NumItems: 0
      m_Data: 
      m_BitSize: 0
    m_TangentSigns:
      m_NumItems: 0
      m_Data: 
      m_BitSize: 0
    m_FloatColors:
      m_NumItems: 0
      m_Range: 0
      m_Start: 0
      m_Data: 
      m_BitSize: 0
    m_BoneIndices:
      m_NumItems: 0
      m_Data: 
      m_BitSize: 0
    m_Triangles:
      m_NumItems: 0
      m_Data: 
      m_BitSize: 0
    m_UVInfo: 0
  m_LocalAABB:
    m_Center: {x: 0, y: 0.01, z: 0}
    m_Extent: {x: 1.2500001, y: 0, z: 0.95000017}
  m_MeshUsageFlags: 0
  m_BakedConvexCollisionMesh: 
  m_BakedTriangleCollisionMesh: 
  m_MeshOptimized: 0
--- !u!1 &1233003985
GameObject:
  m_ObjectHideFlags: 0
  m_PrefabParentObject: {fileID: 113446, guid: 1bb80779de0d85b4bba906974dbaa477, type: 2}
  m_PrefabInternal: {fileID: 806555681}
  serializedVersion: 4
  m_Component:
  - 4: {fileID: 1233003986}
  m_Layer: 0
  m_Name: attach
  m_TagString: Untagged
  m_Icon: {fileID: 0}
  m_NavMeshLayer: 0
  m_StaticEditorFlags: 0
  m_IsActive: 1
--- !u!4 &1233003986
Transform:
  m_ObjectHideFlags: 0
  m_PrefabParentObject: {fileID: 464184, guid: 1bb80779de0d85b4bba906974dbaa477, type: 2}
  m_PrefabInternal: {fileID: 806555681}
  m_GameObject: {fileID: 1233003985}
  m_LocalRotation: {x: 0, y: 0, z: 0, w: 1}
  m_LocalPosition: {x: 0, y: 0, z: -0}
  m_LocalScale: {x: 1, y: 1, z: 1}
  m_LocalEulerAnglesHint: {x: 0, y: 0, z: 0}
  m_Children: []
  m_Father: {fileID: 378368792}
  m_RootOrder: 0
--- !u!1 &1282583194
GameObject:
  m_ObjectHideFlags: 0
  m_PrefabParentObject: {fileID: 122624, guid: 1bb80779de0d85b4bba906974dbaa477, type: 2}
  m_PrefabInternal: {fileID: 806555681}
  serializedVersion: 4
  m_Component:
  - 4: {fileID: 1282583195}
  m_Layer: 0
  m_Name: attach
  m_TagString: Untagged
  m_Icon: {fileID: 0}
  m_NavMeshLayer: 0
  m_StaticEditorFlags: 0
  m_IsActive: 1
--- !u!4 &1282583195
Transform:
  m_ObjectHideFlags: 0
  m_PrefabParentObject: {fileID: 462920, guid: 1bb80779de0d85b4bba906974dbaa477, type: 2}
  m_PrefabInternal: {fileID: 806555681}
  m_GameObject: {fileID: 1282583194}
  m_LocalRotation: {x: 0, y: 0, z: 0, w: 1}
  m_LocalPosition: {x: 0, y: 0, z: -0}
  m_LocalScale: {x: 1, y: 1, z: 1}
  m_LocalEulerAnglesHint: {x: 0, y: 0, z: 0}
  m_Children: []
  m_Father: {fileID: 2009907246}
  m_RootOrder: 0
--- !u!1 &1344738716
GameObject:
  m_ObjectHideFlags: 0
  m_PrefabParentObject: {fileID: 0}
  m_PrefabInternal: {fileID: 0}
  serializedVersion: 4
  m_Component:
  - 4: {fileID: 1344738717}
  m_Layer: 0
  m_Name: Example Objects
  m_TagString: Untagged
  m_Icon: {fileID: 0}
  m_NavMeshLayer: 0
  m_StaticEditorFlags: 0
  m_IsActive: 1
--- !u!4 &1344738717
Transform:
  m_ObjectHideFlags: 0
  m_PrefabParentObject: {fileID: 0}
  m_PrefabInternal: {fileID: 0}
  m_GameObject: {fileID: 1344738716}
  m_LocalRotation: {x: 0, y: 0, z: 0, w: 1}
  m_LocalPosition: {x: 0, y: 0, z: 0}
  m_LocalScale: {x: 1, y: 1, z: 1}
  m_LocalEulerAnglesHint: {x: 0, y: 0, z: 0}
  m_Children:
  - {fileID: 533865590}
  - {fileID: 533658595}
  - {fileID: 1534876643}
  - {fileID: 181818346}
  - {fileID: 158534022}
  - {fileID: 1559588228}
  m_Father: {fileID: 0}
  m_RootOrder: 4
--- !u!1 &1385954887
GameObject:
  m_ObjectHideFlags: 0
  m_PrefabParentObject: {fileID: 100000, guid: d9d1fbfcf69364ffd8f9c6ade9ce90fe, type: 2}
  m_PrefabInternal: {fileID: 393561758}
  serializedVersion: 4
  m_Component:
  - 4: {fileID: 533865590}
  - 33: {fileID: 1385954890}
  - 23: {fileID: 1385954889}
  - 64: {fileID: 1385954888}
  m_Layer: 0
  m_Name: cliff (1)
  m_TagString: Untagged
  m_Icon: {fileID: 0}
  m_NavMeshLayer: 0
  m_StaticEditorFlags: 4294967295
  m_IsActive: 1
--- !u!64 &1385954888
MeshCollider:
  m_ObjectHideFlags: 0
  m_PrefabParentObject: {fileID: 6400000, guid: d9d1fbfcf69364ffd8f9c6ade9ce90fe,
    type: 2}
  m_PrefabInternal: {fileID: 393561758}
  m_GameObject: {fileID: 1385954887}
  m_Material: {fileID: 0}
  m_IsTrigger: 0
  m_Enabled: 1
  serializedVersion: 2
  m_Convex: 0
  m_Mesh: {fileID: 4300000, guid: c6d85766e2e364d3fba28cab76d9bce5, type: 3}
--- !u!23 &1385954889
MeshRenderer:
  m_ObjectHideFlags: 0
  m_PrefabParentObject: {fileID: 2300000, guid: d9d1fbfcf69364ffd8f9c6ade9ce90fe,
    type: 2}
  m_PrefabInternal: {fileID: 393561758}
  m_GameObject: {fileID: 1385954887}
  m_Enabled: 1
  m_CastShadows: 1
  m_ReceiveShadows: 1
  m_Materials:
  - {fileID: 2100000, guid: c25c85fb524f04ea5b7f96dd8eb6cebf, type: 2}
  m_SubsetIndices: 
  m_StaticBatchRoot: {fileID: 0}
  m_UseLightProbes: 0
  m_ReflectionProbeUsage: 1
  m_ProbeAnchor: {fileID: 0}
  m_ScaleInLightmap: 1
  m_PreserveUVs: 0
  m_IgnoreNormalsForChartDetection: 0
  m_ImportantGI: 0
  m_MinimumChartSize: 4
  m_AutoUVMaxDistance: 0.5
  m_AutoUVMaxAngle: 89
  m_LightmapParameters: {fileID: 0}
  m_SortingLayerID: 0
  m_SortingOrder: 0
--- !u!33 &1385954890
MeshFilter:
  m_ObjectHideFlags: 0
  m_PrefabParentObject: {fileID: 3300000, guid: d9d1fbfcf69364ffd8f9c6ade9ce90fe,
    type: 2}
  m_PrefabInternal: {fileID: 393561758}
  m_GameObject: {fileID: 1385954887}
  m_Mesh: {fileID: 4300000, guid: f26ba077fc0b44aa98ece4e68647d4e2, type: 3}
--- !u!1 &1402504759
GameObject:
  m_ObjectHideFlags: 0
  m_PrefabParentObject: {fileID: 135808, guid: 1bb80779de0d85b4bba906974dbaa477, type: 2}
  m_PrefabInternal: {fileID: 806555681}
  serializedVersion: 4
  m_Component:
  - 4: {fileID: 1402504760}
  m_Layer: 0
  m_Name: attach
  m_TagString: Untagged
  m_Icon: {fileID: 0}
  m_NavMeshLayer: 0
  m_StaticEditorFlags: 0
  m_IsActive: 1
--- !u!4 &1402504760
Transform:
  m_ObjectHideFlags: 0
  m_PrefabParentObject: {fileID: 450890, guid: 1bb80779de0d85b4bba906974dbaa477, type: 2}
  m_PrefabInternal: {fileID: 806555681}
  m_GameObject: {fileID: 1402504759}
  m_LocalRotation: {x: 0, y: 0, z: 0, w: 1}
  m_LocalPosition: {x: 0, y: 0, z: -0}
  m_LocalScale: {x: 1, y: 1, z: 1}
  m_LocalEulerAnglesHint: {x: 0, y: 0, z: 0}
  m_Children: []
  m_Father: {fileID: 1021665613}
  m_RootOrder: 0
--- !u!1 &1404500827
GameObject:
  m_ObjectHideFlags: 0
  m_PrefabParentObject: {fileID: 118176, guid: 1bb80779de0d85b4bba906974dbaa477, type: 2}
  m_PrefabInternal: {fileID: 806555681}
  serializedVersion: 4
  m_Component:
  - 4: {fileID: 1404500828}
  m_Layer: 0
  m_Name: gdc2015
  m_TagString: Untagged
  m_Icon: {fileID: 0}
  m_NavMeshLayer: 0
  m_StaticEditorFlags: 0
  m_IsActive: 0
--- !u!4 &1404500828
Transform:
  m_ObjectHideFlags: 0
  m_PrefabParentObject: {fileID: 424810, guid: 1bb80779de0d85b4bba906974dbaa477, type: 2}
  m_PrefabInternal: {fileID: 806555681}
  m_GameObject: {fileID: 1404500827}
  m_LocalRotation: {x: 0, y: 0, z: 0, w: 1}
  m_LocalPosition: {x: 0, y: 0, z: 0}
  m_LocalScale: {x: 1, y: 1, z: 1}
  m_LocalEulerAnglesHint: {x: 0, y: 0, z: 0}
  m_Children:
  - {fileID: 167225759}
  m_Father: {fileID: 890360580}
  m_RootOrder: 3
--- !u!1 &1469801545
GameObject:
  m_ObjectHideFlags: 0
  m_PrefabParentObject: {fileID: 103484, guid: 1bb80779de0d85b4bba906974dbaa477, type: 2}
  m_PrefabInternal: {fileID: 806555681}
  serializedVersion: 4
  m_Component:
  - 4: {fileID: 1469801546}
  m_Layer: 0
  m_Name: tip
  m_TagString: Untagged
  m_Icon: {fileID: 0}
  m_NavMeshLayer: 0
  m_StaticEditorFlags: 0
  m_IsActive: 0
--- !u!4 &1469801546
Transform:
  m_ObjectHideFlags: 0
  m_PrefabParentObject: {fileID: 423118, guid: 1bb80779de0d85b4bba906974dbaa477, type: 2}
  m_PrefabInternal: {fileID: 806555681}
  m_GameObject: {fileID: 1469801545}
  m_LocalRotation: {x: 0, y: 0, z: 0, w: 1}
  m_LocalPosition: {x: 0, y: 0, z: 0}
  m_LocalScale: {x: 1, y: 1, z: 1}
  m_LocalEulerAnglesHint: {x: 0, y: 0, z: 0}
  m_Children:
  - {fileID: 402108760}
  m_Father: {fileID: 969405444}
  m_RootOrder: 8
--- !u!1 &1492278822
GameObject:
  m_ObjectHideFlags: 0
  m_PrefabParentObject: {fileID: 195716, guid: 1bb80779de0d85b4bba906974dbaa477, type: 2}
  m_PrefabInternal: {fileID: 806555681}
  serializedVersion: 4
  m_Component:
  - 4: {fileID: 1492278823}
  m_Layer: 0
  m_Name: base
  m_TagString: Untagged
  m_Icon: {fileID: 0}
  m_NavMeshLayer: 0
  m_StaticEditorFlags: 0
  m_IsActive: 0
--- !u!4 &1492278823
Transform:
  m_ObjectHideFlags: 0
  m_PrefabParentObject: {fileID: 441594, guid: 1bb80779de0d85b4bba906974dbaa477, type: 2}
  m_PrefabInternal: {fileID: 806555681}
  m_GameObject: {fileID: 1492278822}
  m_LocalRotation: {x: 0, y: 0, z: 0, w: 1}
  m_LocalPosition: {x: 0, y: 0, z: 0}
  m_LocalScale: {x: 1, y: 1, z: 1}
  m_LocalEulerAnglesHint: {x: 0, y: 0, z: 0}
  m_Children:
  - {fileID: 286545246}
  m_Father: {fileID: 969405444}
  m_RootOrder: 0
--- !u!1 &1534876639
GameObject:
  m_ObjectHideFlags: 0
  m_PrefabParentObject: {fileID: 0}
  m_PrefabInternal: {fileID: 0}
  serializedVersion: 4
  m_Component:
  - 4: {fileID: 1534876643}
  - 33: {fileID: 1534876642}
  - 65: {fileID: 1534876641}
  - 23: {fileID: 1534876640}
  m_Layer: 0
  m_Name: Cube (1)
  m_TagString: Untagged
  m_Icon: {fileID: 0}
  m_NavMeshLayer: 0
  m_StaticEditorFlags: 0
  m_IsActive: 1
--- !u!23 &1534876640
MeshRenderer:
  m_ObjectHideFlags: 0
  m_PrefabParentObject: {fileID: 0}
  m_PrefabInternal: {fileID: 0}
  m_GameObject: {fileID: 1534876639}
  m_Enabled: 1
  m_CastShadows: 1
  m_ReceiveShadows: 1
  m_Materials:
  - {fileID: 2100000, guid: 2be9fb9bcea91e7419d90800fabf8e0d, type: 2}
  m_SubsetIndices: 
  m_StaticBatchRoot: {fileID: 0}
  m_UseLightProbes: 1
  m_ReflectionProbeUsage: 1
  m_ProbeAnchor: {fileID: 0}
  m_ScaleInLightmap: 1
  m_PreserveUVs: 1
  m_IgnoreNormalsForChartDetection: 0
  m_ImportantGI: 0
  m_MinimumChartSize: 4
  m_AutoUVMaxDistance: 0.5
  m_AutoUVMaxAngle: 89
  m_LightmapParameters: {fileID: 0}
  m_SortingLayerID: 0
  m_SortingOrder: 0
--- !u!65 &1534876641
BoxCollider:
  m_ObjectHideFlags: 0
  m_PrefabParentObject: {fileID: 0}
  m_PrefabInternal: {fileID: 0}
  m_GameObject: {fileID: 1534876639}
  m_Material: {fileID: 0}
  m_IsTrigger: 0
  m_Enabled: 1
  serializedVersion: 2
  m_Size: {x: 1, y: 1, z: 1}
  m_Center: {x: 0, y: 0, z: 0}
--- !u!33 &1534876642
MeshFilter:
  m_ObjectHideFlags: 0
  m_PrefabParentObject: {fileID: 0}
  m_PrefabInternal: {fileID: 0}
  m_GameObject: {fileID: 1534876639}
  m_Mesh: {fileID: 10202, guid: 0000000000000000e000000000000000, type: 0}
--- !u!4 &1534876643
Transform:
  m_ObjectHideFlags: 0
  m_PrefabParentObject: {fileID: 0}
  m_PrefabInternal: {fileID: 0}
  m_GameObject: {fileID: 1534876639}
  m_LocalRotation: {x: 0, y: 0, z: 0, w: 1}
  m_LocalPosition: {x: 3, y: 1, z: 5}
  m_LocalScale: {x: 2, y: 3, z: 2}
  m_LocalEulerAnglesHint: {x: 0, y: 0, z: 0}
  m_Children: []
  m_Father: {fileID: 1344738717}
  m_RootOrder: 2
--- !u!4 &1559588228
Transform:
  m_ObjectHideFlags: 0
  m_PrefabParentObject: {fileID: 400000, guid: d9d1fbfcf69364ffd8f9c6ade9ce90fe, type: 2}
  m_PrefabInternal: {fileID: 1210637101}
  m_GameObject: {fileID: 2125377469}
  m_LocalRotation: {x: 0, y: 0, z: 0, w: 1}
  m_LocalPosition: {x: -0.562804, y: 0.476, z: -5.013}
  m_LocalScale: {x: 1, y: 1, z: 1}
  m_LocalEulerAnglesHint: {x: 0, y: 0, z: 0}
  m_Children: []
  m_Father: {fileID: 1344738717}
  m_RootOrder: 5
--- !u!1 &1600800531
GameObject:
  m_ObjectHideFlags: 0
  m_PrefabParentObject: {fileID: 133956, guid: 1bb80779de0d85b4bba906974dbaa477, type: 2}
  m_PrefabInternal: {fileID: 806555681}
  serializedVersion: 4
  m_Component:
  - 4: {fileID: 1600800532}
  - 54: {fileID: 1600800533}
  m_Layer: 0
  m_Name: attach
  m_TagString: Untagged
  m_Icon: {fileID: 0}
  m_NavMeshLayer: 0
  m_StaticEditorFlags: 0
  m_IsActive: 1
--- !u!4 &1600800532
Transform:
  m_ObjectHideFlags: 0
  m_PrefabParentObject: {fileID: 461982, guid: 1bb80779de0d85b4bba906974dbaa477, type: 2}
  m_PrefabInternal: {fileID: 806555681}
  m_GameObject: {fileID: 1600800531}
  m_LocalRotation: {x: 0, y: 0, z: 0, w: 1}
  m_LocalPosition: {x: 0, y: 0, z: -0}
  m_LocalScale: {x: 1, y: 1, z: 1}
  m_LocalEulerAnglesHint: {x: 0, y: 0, z: 0}
  m_Children: []
  m_Father: {fileID: 741489975}
  m_RootOrder: 0
--- !u!54 &1600800533
Rigidbody:
  m_ObjectHideFlags: 0
  m_PrefabParentObject: {fileID: 5469502, guid: 1bb80779de0d85b4bba906974dbaa477,
    type: 2}
  m_PrefabInternal: {fileID: 806555681}
  m_GameObject: {fileID: 1600800531}
  serializedVersion: 2
  m_Mass: 1
  m_Drag: 0
  m_AngularDrag: 0.05
  m_UseGravity: 1
  m_IsKinematic: 1
  m_Interpolate: 0
  m_Constraints: 0
  m_CollisionDetection: 0
--- !u!1 &1676337958
GameObject:
  m_ObjectHideFlags: 0
  m_PrefabParentObject: {fileID: 187578, guid: 1bb80779de0d85b4bba906974dbaa477, type: 2}
  m_PrefabInternal: {fileID: 806555681}
  serializedVersion: 4
  m_Component:
  - 4: {fileID: 1676337964}
  - 114: {fileID: 1676337963}
  - 23: {fileID: 1676337962}
  - 33: {fileID: 1676337961}
  - 114: {fileID: 1676337960}
  - 114: {fileID: 1676337959}
  m_Layer: 0
  m_Name: '[CameraRig]'
  m_TagString: Untagged
  m_Icon: {fileID: 0}
  m_NavMeshLayer: 0
  m_StaticEditorFlags: 0
  m_IsActive: 1
--- !u!114 &1676337959
MonoBehaviour:
  m_ObjectHideFlags: 0
  m_PrefabParentObject: {fileID: 0}
  m_PrefabInternal: {fileID: 0}
  m_GameObject: {fileID: 1676337958}
  m_Enabled: 1
  m_EditorHideFlags: 0
  m_Script: {fileID: 11500000, guid: 377ced3493c4e1842a5b1c23f56519db, type: 3}
  m_Name: 
  m_EditorClassIdentifier: 
  blinkTransitionSpeed: 0.6
  distanceBlinkDelay: 0
  headsetPositionCompensation: 1
  ignoreTargetWithTagOrClass: 
  playSpaceFalling: 1
--- !u!114 &1676337960
MonoBehaviour:
  m_ObjectHideFlags: 0
  m_PrefabParentObject: {fileID: 11402954, guid: 1bb80779de0d85b4bba906974dbaa477,
    type: 2}
  m_PrefabInternal: {fileID: 806555681}
  m_GameObject: {fileID: 1676337958}
  m_Enabled: 1
  m_EditorHideFlags: 0
  m_Script: {fileID: 11500000, guid: 1f0522eaef74d984591c060d05a095c8, type: 3}
  m_Name: 
  m_EditorClassIdentifier: 
  borderThickness: 0.15
  wireframeHeight: 2
  drawWireframeWhenSelectedOnly: 0
  drawInGame: 1
  size: 0
  color: {r: 0, g: 1, b: 1, a: 1}
  vertices:
  - {x: 1.1000001, y: 0.01, z: -0.80000013}
  - {x: -1.1000001, y: 0.01, z: -0.80000013}
  - {x: -1.1000001, y: 0.01, z: 0.80000013}
  - {x: 1.1000001, y: 0.01, z: 0.80000013}
  - {x: 1.2500001, y: 0.01, z: -0.95000017}
  - {x: -1.2500001, y: 0.01, z: -0.95000017}
  - {x: -1.2500001, y: 0.01, z: 0.95000017}
  - {x: 1.2500001, y: 0.01, z: 0.95000017}
--- !u!33 &1676337961
MeshFilter:
  m_ObjectHideFlags: 0
  m_PrefabParentObject: {fileID: 3376060, guid: 1bb80779de0d85b4bba906974dbaa477,
    type: 2}
  m_PrefabInternal: {fileID: 806555681}
  m_GameObject: {fileID: 1676337958}
  m_Mesh: {fileID: 1212549166}
--- !u!23 &1676337962
MeshRenderer:
  m_ObjectHideFlags: 0
  m_PrefabParentObject: {fileID: 2396750, guid: 1bb80779de0d85b4bba906974dbaa477,
    type: 2}
  m_PrefabInternal: {fileID: 806555681}
  m_GameObject: {fileID: 1676337958}
  m_Enabled: 1
  m_CastShadows: 0
  m_ReceiveShadows: 0
  m_Materials:
  - {fileID: 10754, guid: 0000000000000000e000000000000000, type: 0}
  m_SubsetIndices: 
  m_StaticBatchRoot: {fileID: 0}
  m_UseLightProbes: 0
  m_ReflectionProbeUsage: 0
  m_ProbeAnchor: {fileID: 0}
  m_ScaleInLightmap: 1
  m_PreserveUVs: 0
  m_IgnoreNormalsForChartDetection: 0
  m_ImportantGI: 0
  m_MinimumChartSize: 4
  m_AutoUVMaxDistance: 0.5
  m_AutoUVMaxAngle: 89
  m_LightmapParameters: {fileID: 0}
  m_SortingLayerID: 0
  m_SortingOrder: 0
--- !u!114 &1676337963
MonoBehaviour:
  m_ObjectHideFlags: 0
  m_PrefabParentObject: {fileID: 11491576, guid: 1bb80779de0d85b4bba906974dbaa477,
    type: 2}
  m_PrefabInternal: {fileID: 806555681}
  m_GameObject: {fileID: 1676337958}
  m_Enabled: 1
  m_EditorHideFlags: 0
  m_Script: {fileID: 11500000, guid: e3b47c2980b93bc48844a54641dab5b8, type: 3}
  m_Name: 
  m_EditorClassIdentifier: 
  left: {fileID: 540946614}
  right: {fileID: 188249536}
  objects: []
--- !u!4 &1676337964
Transform:
  m_ObjectHideFlags: 0
  m_PrefabParentObject: {fileID: 446384, guid: 1bb80779de0d85b4bba906974dbaa477, type: 2}
  m_PrefabInternal: {fileID: 806555681}
  m_GameObject: {fileID: 1676337958}
  m_LocalRotation: {x: 0, y: 0, z: 0, w: 1}
  m_LocalPosition: {x: 0, y: 0.5, z: 0}
  m_LocalScale: {x: 1, y: 1, z: 1}
  m_LocalEulerAnglesHint: {x: 0, y: 0, z: 0}
  m_Children:
  - {fileID: 540946618}
  - {fileID: 188249540}
  - {fileID: 181346783}
  m_Father: {fileID: 0}
  m_RootOrder: 2
--- !u!1 &1691830728
GameObject:
  m_ObjectHideFlags: 0
  m_PrefabParentObject: {fileID: 125408, guid: 1bb80779de0d85b4bba906974dbaa477, type: 2}
  m_PrefabInternal: {fileID: 806555681}
  serializedVersion: 4
  m_Component:
  - 4: {fileID: 1691830729}
  m_Layer: 0
  m_Name: attach
  m_TagString: Untagged
  m_Icon: {fileID: 0}
  m_NavMeshLayer: 0
  m_StaticEditorFlags: 0
  m_IsActive: 1
--- !u!4 &1691830729
Transform:
  m_ObjectHideFlags: 0
  m_PrefabParentObject: {fileID: 423054, guid: 1bb80779de0d85b4bba906974dbaa477, type: 2}
  m_PrefabInternal: {fileID: 806555681}
  m_GameObject: {fileID: 1691830728}
  m_LocalRotation: {x: 0, y: 0, z: 0, w: 1}
  m_LocalPosition: {x: 0, y: 0, z: -0}
  m_LocalScale: {x: 1, y: 1, z: 1}
  m_LocalEulerAnglesHint: {x: 0, y: 0, z: 0}
  m_Children: []
  m_Father: {fileID: 704334355}
  m_RootOrder: 0
--- !u!1 &1716295670
GameObject:
  m_ObjectHideFlags: 0
  m_PrefabParentObject: {fileID: 164132, guid: 1bb80779de0d85b4bba906974dbaa477, type: 2}
  m_PrefabInternal: {fileID: 806555681}
  serializedVersion: 4
  m_Component:
  - 4: {fileID: 1716295671}
  m_Layer: 0
  m_Name: attach
  m_TagString: Untagged
  m_Icon: {fileID: 0}
  m_NavMeshLayer: 0
  m_StaticEditorFlags: 0
  m_IsActive: 1
--- !u!4 &1716295671
Transform:
  m_ObjectHideFlags: 0
  m_PrefabParentObject: {fileID: 418886, guid: 1bb80779de0d85b4bba906974dbaa477, type: 2}
  m_PrefabInternal: {fileID: 806555681}
  m_GameObject: {fileID: 1716295670}
  m_LocalRotation: {x: 0, y: 0, z: 0, w: 1}
  m_LocalPosition: {x: 0, y: 0, z: -0}
  m_LocalScale: {x: 1, y: 1, z: 1}
  m_LocalEulerAnglesHint: {x: 0, y: 0, z: 0}
  m_Children: []
  m_Father: {fileID: 1797797055}
  m_RootOrder: 0
--- !u!1 &1742507580
GameObject:
  m_ObjectHideFlags: 0
  m_PrefabParentObject: {fileID: 193536, guid: 1bb80779de0d85b4bba906974dbaa477, type: 2}
  m_PrefabInternal: {fileID: 806555681}
  serializedVersion: 4
  m_Component:
  - 4: {fileID: 1742507581}
  m_Layer: 0
  m_Name: attach
  m_TagString: Untagged
  m_Icon: {fileID: 0}
  m_NavMeshLayer: 0
  m_StaticEditorFlags: 0
  m_IsActive: 1
--- !u!4 &1742507581
Transform:
  m_ObjectHideFlags: 0
  m_PrefabParentObject: {fileID: 481498, guid: 1bb80779de0d85b4bba906974dbaa477, type: 2}
  m_PrefabInternal: {fileID: 806555681}
  m_GameObject: {fileID: 1742507580}
  m_LocalRotation: {x: 0, y: 0, z: 0, w: 1}
  m_LocalPosition: {x: 0, y: 0, z: -0}
  m_LocalScale: {x: 1, y: 1, z: 1}
  m_LocalEulerAnglesHint: {x: 0, y: 0, z: 0}
  m_Children: []
  m_Father: {fileID: 988270691}
  m_RootOrder: 0
--- !u!1 &1753943937
GameObject:
  m_ObjectHideFlags: 0
  m_PrefabParentObject: {fileID: 182268, guid: 1bb80779de0d85b4bba906974dbaa477, type: 2}
  m_PrefabInternal: {fileID: 806555681}
  serializedVersion: 4
  m_Component:
  - 4: {fileID: 1753943938}
  m_Layer: 0
  m_Name: attach
  m_TagString: Untagged
  m_Icon: {fileID: 0}
  m_NavMeshLayer: 0
  m_StaticEditorFlags: 0
  m_IsActive: 1
--- !u!4 &1753943938
Transform:
  m_ObjectHideFlags: 0
  m_PrefabParentObject: {fileID: 499396, guid: 1bb80779de0d85b4bba906974dbaa477, type: 2}
  m_PrefabInternal: {fileID: 806555681}
  m_GameObject: {fileID: 1753943937}
  m_LocalRotation: {x: 0, y: 0, z: 0, w: 1}
  m_LocalPosition: {x: 0, y: 0, z: -0}
  m_LocalScale: {x: 1, y: 1, z: 1}
  m_LocalEulerAnglesHint: {x: 0, y: 0, z: 0}
  m_Children: []
  m_Father: {fileID: 1812347922}
  m_RootOrder: 0
--- !u!1 &1788786871
GameObject:
  m_ObjectHideFlags: 0
  m_PrefabParentObject: {fileID: 140200, guid: 1bb80779de0d85b4bba906974dbaa477, type: 2}
  m_PrefabInternal: {fileID: 806555681}
  serializedVersion: 4
  m_Component:
  - 4: {fileID: 1788786872}
  m_Layer: 0
  m_Name: attach
  m_TagString: Untagged
  m_Icon: {fileID: 0}
  m_NavMeshLayer: 0
  m_StaticEditorFlags: 0
  m_IsActive: 1
--- !u!4 &1788786872
Transform:
  m_ObjectHideFlags: 0
  m_PrefabParentObject: {fileID: 410326, guid: 1bb80779de0d85b4bba906974dbaa477, type: 2}
  m_PrefabInternal: {fileID: 806555681}
  m_GameObject: {fileID: 1788786871}
  m_LocalRotation: {x: 0, y: 0, z: 0, w: 1}
  m_LocalPosition: {x: 0, y: 0, z: -0}
  m_LocalScale: {x: 1, y: 1, z: 1}
  m_LocalEulerAnglesHint: {x: 0, y: 0, z: 0}
  m_Children: []
  m_Father: {fileID: 58134096}
  m_RootOrder: 0
--- !u!1 &1797797054
GameObject:
  m_ObjectHideFlags: 0
  m_PrefabParentObject: {fileID: 107980, guid: 1bb80779de0d85b4bba906974dbaa477, type: 2}
  m_PrefabInternal: {fileID: 806555681}
  serializedVersion: 4
  m_Component:
  - 4: {fileID: 1797797055}
  m_Layer: 0
  m_Name: trackpad_touch
  m_TagString: Untagged
  m_Icon: {fileID: 0}
  m_NavMeshLayer: 0
  m_StaticEditorFlags: 0
  m_IsActive: 0
--- !u!4 &1797797055
Transform:
  m_ObjectHideFlags: 0
  m_PrefabParentObject: {fileID: 402234, guid: 1bb80779de0d85b4bba906974dbaa477, type: 2}
  m_PrefabInternal: {fileID: 806555681}
  m_GameObject: {fileID: 1797797054}
  m_LocalRotation: {x: 0, y: 0, z: 0, w: 1}
  m_LocalPosition: {x: 0, y: 0, z: 0}
  m_LocalScale: {x: 1, y: 1, z: 1}
  m_LocalEulerAnglesHint: {x: 0, y: 0, z: 0}
  m_Children:
  - {fileID: 1716295671}
  m_Father: {fileID: 890360580}
  m_RootOrder: 11
--- !u!1 &1812347921
GameObject:
  m_ObjectHideFlags: 0
  m_PrefabParentObject: {fileID: 123732, guid: 1bb80779de0d85b4bba906974dbaa477, type: 2}
  m_PrefabInternal: {fileID: 806555681}
  serializedVersion: 4
  m_Component:
  - 4: {fileID: 1812347922}
  m_Layer: 0
  m_Name: trackhat
  m_TagString: Untagged
  m_Icon: {fileID: 0}
  m_NavMeshLayer: 0
  m_StaticEditorFlags: 0
  m_IsActive: 0
--- !u!4 &1812347922
Transform:
  m_ObjectHideFlags: 0
  m_PrefabParentObject: {fileID: 462334, guid: 1bb80779de0d85b4bba906974dbaa477, type: 2}
  m_PrefabInternal: {fileID: 806555681}
  m_GameObject: {fileID: 1812347921}
  m_LocalRotation: {x: 0, y: 0, z: 0, w: 1}
  m_LocalPosition: {x: 0, y: 0, z: 0}
  m_LocalScale: {x: 1, y: 1, z: 1}
  m_LocalEulerAnglesHint: {x: 0, y: 0, z: 0}
  m_Children:
  - {fileID: 1753943938}
  m_Father: {fileID: 969405444}
  m_RootOrder: 9
--- !u!1 &1838419646
GameObject:
  m_ObjectHideFlags: 0
  m_PrefabParentObject: {fileID: 172808, guid: 1bb80779de0d85b4bba906974dbaa477, type: 2}
  m_PrefabInternal: {fileID: 806555681}
  serializedVersion: 4
  m_Component:
  - 4: {fileID: 1838419647}
  m_Layer: 0
  m_Name: trigger
  m_TagString: Untagged
  m_Icon: {fileID: 0}
  m_NavMeshLayer: 0
  m_StaticEditorFlags: 0
  m_IsActive: 0
--- !u!4 &1838419647
Transform:
  m_ObjectHideFlags: 0
  m_PrefabParentObject: {fileID: 436586, guid: 1bb80779de0d85b4bba906974dbaa477, type: 2}
  m_PrefabInternal: {fileID: 806555681}
  m_GameObject: {fileID: 1838419646}
  m_LocalRotation: {x: 0, y: 0, z: 0, w: 1}
  m_LocalPosition: {x: 0, y: 0, z: 0}
  m_LocalScale: {x: 1, y: 1, z: 1}
  m_LocalEulerAnglesHint: {x: 0, y: 0, z: 0}
  m_Children:
  - {fileID: 196122644}
  m_Father: {fileID: 890360580}
  m_RootOrder: 12
--- !u!1 &1869109577
GameObject:
  m_ObjectHideFlags: 0
  m_PrefabParentObject: {fileID: 109708, guid: 1bb80779de0d85b4bba906974dbaa477, type: 2}
  m_PrefabInternal: {fileID: 806555681}
  serializedVersion: 4
  m_Component:
  - 4: {fileID: 1869109578}
  m_Layer: 0
  m_Name: base
  m_TagString: Untagged
  m_Icon: {fileID: 0}
  m_NavMeshLayer: 0
  m_StaticEditorFlags: 0
  m_IsActive: 0
--- !u!4 &1869109578
Transform:
  m_ObjectHideFlags: 0
  m_PrefabParentObject: {fileID: 422312, guid: 1bb80779de0d85b4bba906974dbaa477, type: 2}
  m_PrefabInternal: {fileID: 806555681}
  m_GameObject: {fileID: 1869109577}
  m_LocalRotation: {x: 0, y: 0, z: 0, w: 1}
  m_LocalPosition: {x: 0, y: 0, z: 0}
  m_LocalScale: {x: 1, y: 1, z: 1}
  m_LocalEulerAnglesHint: {x: 0, y: 0, z: 0}
  m_Children:
  - {fileID: 2125734683}
  m_Father: {fileID: 890360580}
  m_RootOrder: 0
--- !u!1 &1930123543
GameObject:
  m_ObjectHideFlags: 0
  m_PrefabParentObject: {fileID: 187278, guid: 1bb80779de0d85b4bba906974dbaa477, type: 2}
  m_PrefabInternal: {fileID: 806555681}
  serializedVersion: 4
  m_Component:
  - 4: {fileID: 1930123544}
  - 81: {fileID: 1930123546}
  - 114: {fileID: 1930123545}
  m_Layer: 0
  m_Name: Camera (ears)
  m_TagString: Untagged
  m_Icon: {fileID: 0}
  m_NavMeshLayer: 0
  m_StaticEditorFlags: 0
  m_IsActive: 1
--- !u!4 &1930123544
Transform:
  m_ObjectHideFlags: 0
  m_PrefabParentObject: {fileID: 427986, guid: 1bb80779de0d85b4bba906974dbaa477, type: 2}
  m_PrefabInternal: {fileID: 806555681}
  m_GameObject: {fileID: 1930123543}
  m_LocalRotation: {x: 0, y: 0, z: 0, w: 1}
  m_LocalPosition: {x: 0, y: 0, z: 0}
  m_LocalScale: {x: 1, y: 1, z: 1}
  m_LocalEulerAnglesHint: {x: 0, y: 0, z: 0}
  m_Children: []
  m_Father: {fileID: 181346783}
  m_RootOrder: 1
--- !u!114 &1930123545
MonoBehaviour:
  m_ObjectHideFlags: 0
  m_PrefabParentObject: {fileID: 11466968, guid: 1bb80779de0d85b4bba906974dbaa477,
    type: 2}
  m_PrefabInternal: {fileID: 806555681}
  m_GameObject: {fileID: 1930123543}
  m_Enabled: 1
  m_EditorHideFlags: 0
  m_Script: {fileID: 11500000, guid: 49a86c1078ce4314b9c4224560e031b9, type: 3}
  m_Name: 
  m_EditorClassIdentifier: 
  vrcam: {fileID: 0}
--- !u!81 &1930123546
AudioListener:
  m_ObjectHideFlags: 0
  m_PrefabParentObject: {fileID: 8167650, guid: 1bb80779de0d85b4bba906974dbaa477,
    type: 2}
  m_PrefabInternal: {fileID: 806555681}
  m_GameObject: {fileID: 1930123543}
  m_Enabled: 1
--- !u!1 &2009907245
GameObject:
  m_ObjectHideFlags: 0
  m_PrefabParentObject: {fileID: 161786, guid: 1bb80779de0d85b4bba906974dbaa477, type: 2}
  m_PrefabInternal: {fileID: 806555681}
  serializedVersion: 4
  m_Component:
  - 4: {fileID: 2009907246}
  m_Layer: 0
  m_Name: button
  m_TagString: Untagged
  m_Icon: {fileID: 0}
  m_NavMeshLayer: 0
  m_StaticEditorFlags: 0
  m_IsActive: 0
--- !u!4 &2009907246
Transform:
  m_ObjectHideFlags: 0
  m_PrefabParentObject: {fileID: 464378, guid: 1bb80779de0d85b4bba906974dbaa477, type: 2}
  m_PrefabInternal: {fileID: 806555681}
  m_GameObject: {fileID: 2009907245}
  m_LocalRotation: {x: 0, y: 0, z: 0, w: 1}
  m_LocalPosition: {x: 0, y: 0, z: 0}
  m_LocalScale: {x: 1, y: 1, z: 1}
  m_LocalEulerAnglesHint: {x: 0, y: 0, z: 0}
  m_Children:
  - {fileID: 1282583195}
  m_Father: {fileID: 890360580}
  m_RootOrder: 2
--- !u!1 &2040652510
GameObject:
  m_ObjectHideFlags: 0
  m_PrefabParentObject: {fileID: 0}
  m_PrefabInternal: {fileID: 0}
  serializedVersion: 4
  m_Component:
  - 4: {fileID: 2040652514}
  - 33: {fileID: 2040652513}
  - 65: {fileID: 2040652512}
  - 23: {fileID: 2040652511}
  m_Layer: 0
  m_Name: Floor
  m_TagString: Untagged
  m_Icon: {fileID: 0}
  m_NavMeshLayer: 0
  m_StaticEditorFlags: 0
  m_IsActive: 1
--- !u!23 &2040652511
MeshRenderer:
  m_ObjectHideFlags: 0
  m_PrefabParentObject: {fileID: 0}
  m_PrefabInternal: {fileID: 0}
  m_GameObject: {fileID: 2040652510}
  m_Enabled: 1
  m_CastShadows: 1
  m_ReceiveShadows: 1
  m_Materials:
  - {fileID: 10303, guid: 0000000000000000f000000000000000, type: 0}
  m_SubsetIndices: 
  m_StaticBatchRoot: {fileID: 0}
  m_UseLightProbes: 1
  m_ReflectionProbeUsage: 1
  m_ProbeAnchor: {fileID: 0}
  m_ScaleInLightmap: 1
  m_PreserveUVs: 1
  m_IgnoreNormalsForChartDetection: 0
  m_ImportantGI: 0
  m_MinimumChartSize: 4
  m_AutoUVMaxDistance: 0.5
  m_AutoUVMaxAngle: 89
  m_LightmapParameters: {fileID: 0}
  m_SortingLayerID: 0
  m_SortingOrder: 0
--- !u!65 &2040652512
BoxCollider:
  m_ObjectHideFlags: 0
  m_PrefabParentObject: {fileID: 0}
  m_PrefabInternal: {fileID: 0}
  m_GameObject: {fileID: 2040652510}
  m_Material: {fileID: 0}
  m_IsTrigger: 0
  m_Enabled: 1
  serializedVersion: 2
  m_Size: {x: 1, y: 1, z: 1}
  m_Center: {x: 0, y: 0, z: 0}
--- !u!33 &2040652513
MeshFilter:
  m_ObjectHideFlags: 0
  m_PrefabParentObject: {fileID: 0}
  m_PrefabInternal: {fileID: 0}
  m_GameObject: {fileID: 2040652510}
  m_Mesh: {fileID: 10202, guid: 0000000000000000e000000000000000, type: 0}
--- !u!4 &2040652514
Transform:
  m_ObjectHideFlags: 0
  m_PrefabParentObject: {fileID: 0}
  m_PrefabInternal: {fileID: 0}
  m_GameObject: {fileID: 2040652510}
  m_LocalRotation: {x: 0, y: 0, z: 0, w: 1}
  m_LocalPosition: {x: 0, y: 0, z: 0}
  m_LocalScale: {x: 10, y: 1, z: 10}
  m_LocalEulerAnglesHint: {x: 0, y: 0, z: 0}
  m_Children: []
  m_Father: {fileID: 0}
  m_RootOrder: 1
--- !u!1 &2074654348
GameObject:
  m_ObjectHideFlags: 0
  m_PrefabParentObject: {fileID: 161922, guid: 1bb80779de0d85b4bba906974dbaa477, type: 2}
  m_PrefabInternal: {fileID: 806555681}
  serializedVersion: 4
  m_Component:
  - 4: {fileID: 2074654349}
  m_Layer: 0
  m_Name: attach
  m_TagString: Untagged
  m_Icon: {fileID: 0}
  m_NavMeshLayer: 0
  m_StaticEditorFlags: 0
  m_IsActive: 1
--- !u!4 &2074654349
Transform:
  m_ObjectHideFlags: 0
  m_PrefabParentObject: {fileID: 492230, guid: 1bb80779de0d85b4bba906974dbaa477, type: 2}
  m_PrefabInternal: {fileID: 806555681}
  m_GameObject: {fileID: 2074654348}
  m_LocalRotation: {x: 0, y: 0, z: 0, w: 1}
  m_LocalPosition: {x: 0, y: 0, z: -0}
  m_LocalScale: {x: 1, y: 1, z: 1}
  m_LocalEulerAnglesHint: {x: 0, y: 0, z: 0}
  m_Children: []
  m_Father: {fileID: 977177997}
  m_RootOrder: 0
--- !u!1 &2078682112
GameObject:
  m_ObjectHideFlags: 0
  m_PrefabParentObject: {fileID: 196182, guid: 1bb80779de0d85b4bba906974dbaa477, type: 2}
  m_PrefabInternal: {fileID: 806555681}
  serializedVersion: 4
  m_Component:
  - 4: {fileID: 2078682113}
  m_Layer: 0
  m_Name: body
  m_TagString: Untagged
  m_Icon: {fileID: 0}
  m_NavMeshLayer: 0
  m_StaticEditorFlags: 0
  m_IsActive: 0
--- !u!4 &2078682113
Transform:
  m_ObjectHideFlags: 0
  m_PrefabParentObject: {fileID: 472966, guid: 1bb80779de0d85b4bba906974dbaa477, type: 2}
  m_PrefabInternal: {fileID: 806555681}
  m_GameObject: {fileID: 2078682112}
  m_LocalRotation: {x: 0, y: 0, z: 0, w: 1}
  m_LocalPosition: {x: 0, y: 0, z: 0}
  m_LocalScale: {x: 1, y: 1, z: 1}
  m_LocalEulerAnglesHint: {x: 0, y: 0, z: 0}
  m_Children:
  - {fileID: 897222095}
  m_Father: {fileID: 969405444}
  m_RootOrder: 1
--- !u!1 &2123877843
GameObject:
  m_ObjectHideFlags: 0
  m_PrefabParentObject: {fileID: 0}
  m_PrefabInternal: {fileID: 0}
  serializedVersion: 4
  m_Component:
  - 4: {fileID: 2123877845}
  - 108: {fileID: 2123877844}
  m_Layer: 0
  m_Name: Directional Light
  m_TagString: Untagged
  m_Icon: {fileID: 0}
  m_NavMeshLayer: 0
  m_StaticEditorFlags: 0
  m_IsActive: 1
--- !u!108 &2123877844
Light:
  m_ObjectHideFlags: 0
  m_PrefabParentObject: {fileID: 0}
  m_PrefabInternal: {fileID: 0}
  m_GameObject: {fileID: 2123877843}
  m_Enabled: 1
  serializedVersion: 6
  m_Type: 1
  m_Color: {r: 1, g: 0.95686275, b: 0.8392157, a: 1}
  m_Intensity: 1
  m_Range: 10
  m_SpotAngle: 30
  m_CookieSize: 10
  m_Shadows:
    m_Type: 2
    m_Resolution: -1
    m_Strength: 1
    m_Bias: 0.05
    m_NormalBias: 0.4
    m_NearPlane: 0.2
  m_Cookie: {fileID: 0}
  m_DrawHalo: 0
  m_Flare: {fileID: 0}
  m_RenderMode: 0
  m_CullingMask:
    serializedVersion: 2
    m_Bits: 4294967295
  m_Lightmapping: 4
  m_BounceIntensity: 1
  m_ShadowRadius: 0
  m_ShadowAngle: 0
  m_AreaSize: {x: 1, y: 1}
--- !u!4 &2123877845
Transform:
  m_ObjectHideFlags: 0
  m_PrefabParentObject: {fileID: 0}
  m_PrefabInternal: {fileID: 0}
  m_GameObject: {fileID: 2123877843}
  m_LocalRotation: {x: 0.40821794, y: -0.23456973, z: 0.109381676, w: 0.87542605}
  m_LocalPosition: {x: 0, y: 3, z: 0}
  m_LocalScale: {x: 1, y: 1, z: 1}
  m_LocalEulerAnglesHint: {x: 0, y: 0, z: 0}
  m_Children: []
  m_Father: {fileID: 0}
  m_RootOrder: 0
--- !u!1 &2125377469
GameObject:
  m_ObjectHideFlags: 0
  m_PrefabParentObject: {fileID: 100000, guid: d9d1fbfcf69364ffd8f9c6ade9ce90fe, type: 2}
  m_PrefabInternal: {fileID: 1210637101}
  serializedVersion: 4
  m_Component:
  - 4: {fileID: 1559588228}
  - 33: {fileID: 2125377472}
  - 23: {fileID: 2125377471}
  - 64: {fileID: 2125377470}
  m_Layer: 0
  m_Name: cliff
  m_TagString: Untagged
  m_Icon: {fileID: 0}
  m_NavMeshLayer: 0
  m_StaticEditorFlags: 4294967295
  m_IsActive: 1
--- !u!64 &2125377470
MeshCollider:
  m_ObjectHideFlags: 0
  m_PrefabParentObject: {fileID: 6400000, guid: d9d1fbfcf69364ffd8f9c6ade9ce90fe,
    type: 2}
  m_PrefabInternal: {fileID: 1210637101}
  m_GameObject: {fileID: 2125377469}
  m_Material: {fileID: 0}
  m_IsTrigger: 0
  m_Enabled: 1
  serializedVersion: 2
  m_Convex: 0
  m_Mesh: {fileID: 4300000, guid: c6d85766e2e364d3fba28cab76d9bce5, type: 3}
--- !u!23 &2125377471
MeshRenderer:
  m_ObjectHideFlags: 0
  m_PrefabParentObject: {fileID: 2300000, guid: d9d1fbfcf69364ffd8f9c6ade9ce90fe,
    type: 2}
  m_PrefabInternal: {fileID: 1210637101}
  m_GameObject: {fileID: 2125377469}
  m_Enabled: 1
  m_CastShadows: 1
  m_ReceiveShadows: 1
  m_Materials:
  - {fileID: 2100000, guid: c25c85fb524f04ea5b7f96dd8eb6cebf, type: 2}
  m_SubsetIndices: 
  m_StaticBatchRoot: {fileID: 0}
  m_UseLightProbes: 0
  m_ReflectionProbeUsage: 1
  m_ProbeAnchor: {fileID: 0}
  m_ScaleInLightmap: 1
  m_PreserveUVs: 0
  m_IgnoreNormalsForChartDetection: 0
  m_ImportantGI: 0
  m_MinimumChartSize: 4
  m_AutoUVMaxDistance: 0.5
  m_AutoUVMaxAngle: 89
  m_LightmapParameters: {fileID: 0}
  m_SortingLayerID: 0
  m_SortingOrder: 0
--- !u!33 &2125377472
MeshFilter:
  m_ObjectHideFlags: 0
  m_PrefabParentObject: {fileID: 3300000, guid: d9d1fbfcf69364ffd8f9c6ade9ce90fe,
    type: 2}
  m_PrefabInternal: {fileID: 1210637101}
  m_GameObject: {fileID: 2125377469}
  m_Mesh: {fileID: 4300000, guid: f26ba077fc0b44aa98ece4e68647d4e2, type: 3}
--- !u!1 &2125734682
GameObject:
  m_ObjectHideFlags: 0
  m_PrefabParentObject: {fileID: 149132, guid: 1bb80779de0d85b4bba906974dbaa477, type: 2}
  m_PrefabInternal: {fileID: 806555681}
  serializedVersion: 4
  m_Component:
  - 4: {fileID: 2125734683}
  m_Layer: 0
  m_Name: attach
  m_TagString: Untagged
  m_Icon: {fileID: 0}
  m_NavMeshLayer: 0
  m_StaticEditorFlags: 0
  m_IsActive: 1
--- !u!4 &2125734683
Transform:
  m_ObjectHideFlags: 0
  m_PrefabParentObject: {fileID: 443192, guid: 1bb80779de0d85b4bba906974dbaa477, type: 2}
  m_PrefabInternal: {fileID: 806555681}
  m_GameObject: {fileID: 2125734682}
  m_LocalRotation: {x: 0, y: 0, z: 0, w: 1}
  m_LocalPosition: {x: 0, y: 0, z: -0}
  m_LocalScale: {x: 1, y: 1, z: 1}
  m_LocalEulerAnglesHint: {x: 0, y: 0, z: 0}
  m_Children: []
  m_Father: {fileID: 1869109578}
  m_RootOrder: 0
